^C:\USERS\VICTO\DESKTOP\MYSPONZA\DEFERMYSPONZA\SOURCE\MAIN.CPP
C:\USERS\VICTO\DESKTOP\MYSPONZA\DEFERMYSPONZA\SOURCE\MYCONTROLLER.HPP
C:\USERS\VICTO\DESKTOP\MYSPONZA\BUILD\INCLUDE\TYGRA\WINDOWCONTROLDELEGATE.HPP
C:\USERS\VICTO\DESKTOP\MYSPONZA\BUILD\INCLUDE\SPONZA\SPONZA_FWD.HPP
C:\USERS\VICTO\DESKTOP\MYSPONZA\BUILD\INCLUDE\SPONZA\TYPES.HPP
C:\USERS\VICTO\DESKTOP\MYSPONZA\BUILD\INCLUDE\SPONZA\CONFIG.HPP
C:\USERS\VICTO\DESKTOP\MYSPONZA\BUILD\INCLUDE\TYGRA\WINDOW.HPP
C:\PROGRAM FILES (X86)\MICROSOFT VISUAL STUDIO\2017\COMMUNITY\VC\TOOLS\MSVC\14.14.26428\INCLUDE\STRING
C:\PROGRAM FILES (X86)\MICROSOFT VISUAL STUDIO\2017\COMMUNITY\VC\TOOLS\MSVC\14.14.26428\INCLUDE\ISTREAM
C:\PROGRAM FILES (X86)\MICROSOFT VISUAL STUDIO\2017\COMMUNITY\VC\TOOLS\MSVC\14.14.26428\INCLUDE\OSTREAM
C:\PROGRAM FILES (X86)\MICROSOFT VISUAL STUDIO\2017\COMMUNITY\VC\TOOLS\MSVC\14.14.26428\INCLUDE\IOS
C:\PROGRAM FILES (X86)\MICROSOFT VISUAL STUDIO\2017\COMMUNITY\VC\TOOLS\MSVC\14.14.26428\INCLUDE\XLOCNUM
C:\PROGRAM FILES (X86)\MICROSOFT VISUAL STUDIO\2017\COMMUNITY\VC\TOOLS\MSVC\14.14.26428\INCLUDE\CLIMITS
C:\PROGRAM FILES (X86)\MICROSOFT VISUAL STUDIO\2017\COMMUNITY\VC\TOOLS\MSVC\14.14.26428\INCLUDE\YVALS.H
C:\PROGRAM FILES (X86)\MICROSOFT VISUAL STUDIO\2017\COMMUNITY\VC\TOOLS\MSVC\14.14.26428\INCLUDE\XKEYCHECK.H
C:\PROGRAM FILES (X86)\MICROSOFT VISUAL STUDIO\2017\COMMUNITY\VC\TOOLS\MSVC\14.14.26428\INCLUDE\CRTDEFS.H
C:\PROGRAM FILES (X86)\MICROSOFT VISUAL STUDIO\2017\COMMUNITY\VC\TOOLS\MSVC\14.14.26428\INCLUDE\VCRUNTIME.H
C:\PROGRAM FILES (X86)\MICROSOFT VISUAL STUDIO\2017\COMMUNITY\VC\TOOLS\MSVC\14.14.26428\INCLUDE\SAL.H
C:\PROGRAM FILES (X86)\MICROSOFT VISUAL STUDIO\2017\COMMUNITY\VC\TOOLS\MSVC\14.14.26428\INCLUDE\CONCURRENCYSAL.H
C:\PROGRAM FILES (X86)\MICROSOFT VISUAL STUDIO\2017\COMMUNITY\VC\TOOLS\MSVC\14.14.26428\INCLUDE\VADEFS.H
C:\PROGRAM FILES (X86)\WINDOWS KITS\10\INCLUDE\10.0.10240.0\UCRT\CORECRT.H
C:\PROGRAM FILES (X86)\MICROSOFT VISUAL STUDIO\2017\COMMUNITY\VC\TOOLS\MSVC\14.14.26428\INCLUDE\USE_ANSI.H
C:\PROGRAM FILES (X86)\MICROSOFT VISUAL STUDIO\2017\COMMUNITY\VC\TOOLS\MSVC\14.14.26428\INCLUDE\LIMITS.H
C:\PROGRAM FILES (X86)\MICROSOFT VISUAL STUDIO\2017\COMMUNITY\VC\TOOLS\MSVC\14.14.26428\INCLUDE\CMATH
C:\PROGRAM FILES (X86)\MICROSOFT VISUAL STUDIO\2017\COMMUNITY\VC\TOOLS\MSVC\14.14.26428\INCLUDE\CSTDLIB
C:\PROGRAM FILES (X86)\WINDOWS KITS\10\INCLUDE\10.0.10240.0\UCRT\STDLIB.H
C:\PROGRAM FILES (X86)\WINDOWS KITS\10\INCLUDE\10.0.10240.0\UCRT\CORECRT_MALLOC.H
C:\PROGRAM FILES (X86)\WINDOWS KITS\10\INCLUDE\10.0.10240.0\UCRT\CORECRT_SEARCH.H
C:\PROGRAM FILES (X86)\WINDOWS KITS\10\INCLUDE\10.0.10240.0\UCRT\STDDEF.H
C:\PROGRAM FILES (X86)\WINDOWS KITS\10\INCLUDE\10.0.10240.0\UCRT\CORECRT_WSTDLIB.H
C:\PROGRAM FILES (X86)\WINDOWS KITS\10\INCLUDE\10.0.10240.0\UCRT\MATH.H
C:\PROGRAM FILES (X86)\MICROSOFT VISUAL STUDIO\2017\COMMUNITY\VC\TOOLS\MSVC\14.14.26428\INCLUDE\XTGMATH.H
C:\PROGRAM FILES (X86)\MICROSOFT VISUAL STUDIO\2017\COMMUNITY\VC\TOOLS\MSVC\14.14.26428\INCLUDE\XTR1COMMON
C:\PROGRAM FILES (X86)\MICROSOFT VISUAL STUDIO\2017\COMMUNITY\VC\TOOLS\MSVC\14.14.26428\INCLUDE\CSTDIO
C:\PROGRAM FILES (X86)\WINDOWS KITS\10\INCLUDE\10.0.10240.0\UCRT\STDIO.H
C:\PROGRAM FILES (X86)\WINDOWS KITS\10\INCLUDE\10.0.10240.0\UCRT\CORECRT_WSTDIO.H
C:\PROGRAM FILES (X86)\WINDOWS KITS\10\INCLUDE\10.0.10240.0\UCRT\CORECRT_STDIO_CONFIG.H
C:\PROGRAM FILES (X86)\MICROSOFT VISUAL STUDIO\2017\COMMUNITY\VC\TOOLS\MSVC\14.14.26428\INCLUDE\STREAMBUF
C:\PROGRAM FILES (X86)\MICROSOFT VISUAL STUDIO\2017\COMMUNITY\VC\TOOLS\MSVC\14.14.26428\INCLUDE\XIOSBASE
C:\PROGRAM FILES (X86)\MICROSOFT VISUAL STUDIO\2017\COMMUNITY\VC\TOOLS\MSVC\14.14.26428\INCLUDE\XLOCALE
C:\PROGRAM FILES (X86)\MICROSOFT VISUAL STUDIO\2017\COMMUNITY\VC\TOOLS\MSVC\14.14.26428\INCLUDE\CSTRING
C:\PROGRAM FILES (X86)\WINDOWS KITS\10\INCLUDE\10.0.10240.0\UCRT\STRING.H
C:\PROGRAM FILES (X86)\WINDOWS KITS\10\INCLUDE\10.0.10240.0\UCRT\CORECRT_MEMORY.H
C:\PROGRAM FILES (X86)\WINDOWS KITS\10\INCLUDE\10.0.10240.0\UCRT\CORECRT_MEMCPY_S.H
C:\PROGRAM FILES (X86)\WINDOWS KITS\10\INCLUDE\10.0.10240.0\UCRT\ERRNO.H
C:\PROGRAM FILES (X86)\MICROSOFT VISUAL STUDIO\2017\COMMUNITY\VC\TOOLS\MSVC\14.14.26428\INCLUDE\VCRUNTIME_STRING.H
C:\PROGRAM FILES (X86)\WINDOWS KITS\10\INCLUDE\10.0.10240.0\UCRT\CORECRT_WSTRING.H
C:\PROGRAM FILES (X86)\MICROSOFT VISUAL STUDIO\2017\COMMUNITY\VC\TOOLS\MSVC\14.14.26428\INCLUDE\STDEXCEPT
C:\PROGRAM FILES (X86)\MICROSOFT VISUAL STUDIO\2017\COMMUNITY\VC\TOOLS\MSVC\14.14.26428\INCLUDE\EXCEPTION
C:\PROGRAM FILES (X86)\MICROSOFT VISUAL STUDIO\2017\COMMUNITY\VC\TOOLS\MSVC\14.14.26428\INCLUDE\TYPE_TRAITS
C:\PROGRAM FILES (X86)\MICROSOFT VISUAL STUDIO\2017\COMMUNITY\VC\TOOLS\MSVC\14.14.26428\INCLUDE\XSTDDEF
C:\PROGRAM FILES (X86)\MICROSOFT VISUAL STUDIO\2017\COMMUNITY\VC\TOOLS\MSVC\14.14.26428\INCLUDE\CSTDDEF
C:\PROGRAM FILES (X86)\MICROSOFT VISUAL STUDIO\2017\COMMUNITY\VC\TOOLS\MSVC\14.14.26428\INCLUDE\INITIALIZER_LIST
C:\PROGRAM FILES (X86)\WINDOWS KITS\10\INCLUDE\10.0.10240.0\UCRT\MALLOC.H
C:\PROGRAM FILES (X86)\MICROSOFT VISUAL STUDIO\2017\COMMUNITY\VC\TOOLS\MSVC\14.14.26428\INCLUDE\VCRUNTIME_EXCEPTION.H
C:\PROGRAM FILES (X86)\MICROSOFT VISUAL STUDIO\2017\COMMUNITY\VC\TOOLS\MSVC\14.14.26428\INCLUDE\EH.H
C:\PROGRAM FILES (X86)\WINDOWS KITS\10\INCLUDE\10.0.10240.0\UCRT\CORECRT_TERMINATE.H
C:\PROGRAM FILES (X86)\MICROSOFT VISUAL STUDIO\2017\COMMUNITY\VC\TOOLS\MSVC\14.14.26428\INCLUDE\XSTRING
C:\PROGRAM FILES (X86)\MICROSOFT VISUAL STUDIO\2017\COMMUNITY\VC\TOOLS\MSVC\14.14.26428\INCLUDE\XMEMORY0
C:\PROGRAM FILES (X86)\MICROSOFT VISUAL STUDIO\2017\COMMUNITY\VC\TOOLS\MSVC\14.14.26428\INCLUDE\CSTDINT
C:\PROGRAM FILES (X86)\MICROSOFT VISUAL STUDIO\2017\COMMUNITY\VC\TOOLS\MSVC\14.14.26428\INCLUDE\STDINT.H
C:\PROGRAM FILES (X86)\MICROSOFT VISUAL STUDIO\2017\COMMUNITY\VC\TOOLS\MSVC\14.14.26428\INCLUDE\LIMITS
C:\PROGRAM FILES (X86)\MICROSOFT VISUAL STUDIO\2017\COMMUNITY\VC\TOOLS\MSVC\14.14.26428\INCLUDE\YMATH.H
C:\PROGRAM FILES (X86)\MICROSOFT VISUAL STUDIO\2017\COMMUNITY\VC\TOOLS\MSVC\14.14.26428\INCLUDE\CFLOAT
C:\PROGRAM FILES (X86)\WINDOWS KITS\10\INCLUDE\10.0.10240.0\UCRT\FLOAT.H
C:\PROGRAM FILES (X86)\MICROSOFT VISUAL STUDIO\2017\COMMUNITY\VC\TOOLS\MSVC\14.14.26428\INCLUDE\CWCHAR
C:\PROGRAM FILES (X86)\WINDOWS KITS\10\INCLUDE\10.0.10240.0\UCRT\WCHAR.H
C:\PROGRAM FILES (X86)\WINDOWS KITS\10\INCLUDE\10.0.10240.0\UCRT\CORECRT_WCONIO.H
C:\PROGRAM FILES (X86)\WINDOWS KITS\10\INCLUDE\10.0.10240.0\UCRT\CORECRT_WCTYPE.H
C:\PROGRAM FILES (X86)\WINDOWS KITS\10\INCLUDE\10.0.10240.0\UCRT\CORECRT_WDIRECT.H
C:\PROGRAM FILES (X86)\WINDOWS KITS\10\INCLUDE\10.0.10240.0\UCRT\CORECRT_WIO.H
C:\PROGRAM FILES (X86)\WINDOWS KITS\10\INCLUDE\10.0.10240.0\UCRT\CORECRT_SHARE.H
C:\PROGRAM FILES (X86)\WINDOWS KITS\10\INCLUDE\10.0.10240.0\UCRT\CORECRT_WPROCESS.H
C:\PROGRAM FILES (X86)\WINDOWS KITS\10\INCLUDE\10.0.10240.0\UCRT\CORECRT_WTIME.H
C:\PROGRAM FILES (X86)\WINDOWS KITS\10\INCLUDE\10.0.10240.0\UCRT\SYS\STAT.H
C:\PROGRAM FILES (X86)\WINDOWS KITS\10\INCLUDE\10.0.10240.0\UCRT\SYS\TYPES.H
C:\PROGRAM FILES (X86)\MICROSOFT VISUAL STUDIO\2017\COMMUNITY\VC\TOOLS\MSVC\14.14.26428\INCLUDE\NEW
C:\PROGRAM FILES (X86)\MICROSOFT VISUAL STUDIO\2017\COMMUNITY\VC\TOOLS\MSVC\14.14.26428\INCLUDE\VCRUNTIME_NEW.H
C:\PROGRAM FILES (X86)\MICROSOFT VISUAL STUDIO\2017\COMMUNITY\VC\TOOLS\MSVC\14.14.26428\INCLUDE\XUTILITY
C:\PROGRAM FILES (X86)\MICROSOFT VISUAL STUDIO\2017\COMMUNITY\VC\TOOLS\MSVC\14.14.26428\INCLUDE\UTILITY
C:\PROGRAM FILES (X86)\MICROSOFT VISUAL STUDIO\2017\COMMUNITY\VC\TOOLS\MSVC\14.14.26428\INCLUDE\IOSFWD
C:\PROGRAM FILES (X86)\WINDOWS KITS\10\INCLUDE\10.0.10240.0\UCRT\CRTDBG.H
C:\PROGRAM FILES (X86)\MICROSOFT VISUAL STUDIO\2017\COMMUNITY\VC\TOOLS\MSVC\14.14.26428\INCLUDE\VCRUNTIME_NEW_DEBUG.H
C:\PROGRAM FILES (X86)\MICROSOFT VISUAL STUDIO\2017\COMMUNITY\VC\TOOLS\MSVC\14.14.26428\INCLUDE\XATOMIC0.H
C:\PROGRAM FILES (X86)\MICROSOFT VISUAL STUDIO\2017\COMMUNITY\VC\TOOLS\MSVC\14.14.26428\INCLUDE\INTRIN0.H
C:\PROGRAM FILES (X86)\MICROSOFT VISUAL STUDIO\2017\COMMUNITY\VC\TOOLS\MSVC\14.14.26428\INCLUDE\TYPEINFO
C:\PROGRAM FILES (X86)\MICROSOFT VISUAL STUDIO\2017\COMMUNITY\VC\TOOLS\MSVC\14.14.26428\INCLUDE\VCRUNTIME_TYPEINFO.H
C:\PROGRAM FILES (X86)\MICROSOFT VISUAL STUDIO\2017\COMMUNITY\VC\TOOLS\MSVC\14.14.26428\INCLUDE\XLOCINFO
C:\PROGRAM FILES (X86)\MICROSOFT VISUAL STUDIO\2017\COMMUNITY\VC\TOOLS\MSVC\14.14.26428\INCLUDE\XLOCINFO.H
C:\PROGRAM FILES (X86)\WINDOWS KITS\10\INCLUDE\10.0.10240.0\UCRT\CTYPE.H
C:\PROGRAM FILES (X86)\WINDOWS KITS\10\INCLUDE\10.0.10240.0\UCRT\LOCALE.H
C:\PROGRAM FILES (X86)\MICROSOFT VISUAL STUDIO\2017\COMMUNITY\VC\TOOLS\MSVC\14.14.26428\INCLUDE\MEMORY
C:\PROGRAM FILES (X86)\MICROSOFT VISUAL STUDIO\2017\COMMUNITY\VC\TOOLS\MSVC\14.14.26428\INCLUDE\XMEMORY
C:\PROGRAM FILES (X86)\MICROSOFT VISUAL STUDIO\2017\COMMUNITY\VC\TOOLS\MSVC\14.14.26428\INCLUDE\XFACET
C:\PROGRAM FILES (X86)\MICROSOFT VISUAL STUDIO\2017\COMMUNITY\VC\TOOLS\MSVC\14.14.26428\INCLUDE\SYSTEM_ERROR
C:\PROGRAM FILES (X86)\MICROSOFT VISUAL STUDIO\2017\COMMUNITY\VC\TOOLS\MSVC\14.14.26428\INCLUDE\CERRNO
C:\PROGRAM FILES (X86)\MICROSOFT VISUAL STUDIO\2017\COMMUNITY\VC\TOOLS\MSVC\14.14.26428\INCLUDE\XCALL_ONCE.H
C:\PROGRAM FILES (X86)\MICROSOFT VISUAL STUDIO\2017\COMMUNITY\VC\TOOLS\MSVC\14.14.26428\INCLUDE\XERRC.H
C:\PROGRAM FILES (X86)\WINDOWS KITS\10\INCLUDE\10.0.10240.0\UCRT\SHARE.H
C:\PROGRAM FILES (X86)\MICROSOFT VISUAL STUDIO\2017\COMMUNITY\VC\TOOLS\MSVC\14.14.26428\INCLUDE\XSTRING_INSERT.H
C:\PROGRAM FILES (X86)\MICROSOFT VISUAL STUDIO\2017\COMMUNITY\VC\TOOLS\MSVC\14.14.26428\INCLUDE\IOSTREAM
^C:\USERS\VICTO\DESKTOP\MYSPONZA\DEFERMYSPONZA\SOURCE\OPENGL.CPP
C:\USERS\VICTO\DESKTOP\MYSPONZA\DEFERMYSPONZA\SOURCE\OPENGL.HPP
C:\USERS\VICTO\DESKTOP\MYSPONZA\BUILD\INCLUDE\SPONZA\SPONZA_FWD.HPP
C:\USERS\VICTO\DESKTOP\MYSPONZA\BUILD\INCLUDE\SPONZA\TYPES.HPP
C:\USERS\VICTO\DESKTOP\MYSPONZA\BUILD\INCLUDE\SPONZA\CONFIG.HPP
C:\PROGRAM FILES (X86)\MICROSOFT VISUAL STUDIO\2017\COMMUNITY\VC\TOOLS\MSVC\14.14.26428\INCLUDE\VECTOR
C:\PROGRAM FILES (X86)\MICROSOFT VISUAL STUDIO\2017\COMMUNITY\VC\TOOLS\MSVC\14.14.26428\INCLUDE\XMEMORY
C:\PROGRAM FILES (X86)\MICROSOFT VISUAL STUDIO\2017\COMMUNITY\VC\TOOLS\MSVC\14.14.26428\INCLUDE\XMEMORY0
C:\PROGRAM FILES (X86)\MICROSOFT VISUAL STUDIO\2017\COMMUNITY\VC\TOOLS\MSVC\14.14.26428\INCLUDE\CSTDINT
C:\PROGRAM FILES (X86)\MICROSOFT VISUAL STUDIO\2017\COMMUNITY\VC\TOOLS\MSVC\14.14.26428\INCLUDE\YVALS.H
C:\PROGRAM FILES (X86)\MICROSOFT VISUAL STUDIO\2017\COMMUNITY\VC\TOOLS\MSVC\14.14.26428\INCLUDE\XKEYCHECK.H
C:\PROGRAM FILES (X86)\MICROSOFT VISUAL STUDIO\2017\COMMUNITY\VC\TOOLS\MSVC\14.14.26428\INCLUDE\CRTDEFS.H
C:\PROGRAM FILES (X86)\MICROSOFT VISUAL STUDIO\2017\COMMUNITY\VC\TOOLS\MSVC\14.14.26428\INCLUDE\VCRUNTIME.H
C:\PROGRAM FILES (X86)\MICROSOFT VISUAL STUDIO\2017\COMMUNITY\VC\TOOLS\MSVC\14.14.26428\INCLUDE\SAL.H
C:\PROGRAM FILES (X86)\MICROSOFT VISUAL STUDIO\2017\COMMUNITY\VC\TOOLS\MSVC\14.14.26428\INCLUDE\CONCURRENCYSAL.H
C:\PROGRAM FILES (X86)\MICROSOFT VISUAL STUDIO\2017\COMMUNITY\VC\TOOLS\MSVC\14.14.26428\INCLUDE\VADEFS.H
C:\PROGRAM FILES (X86)\WINDOWS KITS\10\INCLUDE\10.0.10240.0\UCRT\CORECRT.H
C:\PROGRAM FILES (X86)\MICROSOFT VISUAL STUDIO\2017\COMMUNITY\VC\TOOLS\MSVC\14.14.26428\INCLUDE\USE_ANSI.H
C:\PROGRAM FILES (X86)\MICROSOFT VISUAL STUDIO\2017\COMMUNITY\VC\TOOLS\MSVC\14.14.26428\INCLUDE\STDINT.H
C:\PROGRAM FILES (X86)\MICROSOFT VISUAL STUDIO\2017\COMMUNITY\VC\TOOLS\MSVC\14.14.26428\INCLUDE\CSTDLIB
C:\PROGRAM FILES (X86)\WINDOWS KITS\10\INCLUDE\10.0.10240.0\UCRT\STDLIB.H
C:\PROGRAM FILES (X86)\WINDOWS KITS\10\INCLUDE\10.0.10240.0\UCRT\CORECRT_MALLOC.H
C:\PROGRAM FILES (X86)\WINDOWS KITS\10\INCLUDE\10.0.10240.0\UCRT\CORECRT_SEARCH.H
C:\PROGRAM FILES (X86)\WINDOWS KITS\10\INCLUDE\10.0.10240.0\UCRT\STDDEF.H
C:\PROGRAM FILES (X86)\WINDOWS KITS\10\INCLUDE\10.0.10240.0\UCRT\CORECRT_WSTDLIB.H
C:\PROGRAM FILES (X86)\MICROSOFT VISUAL STUDIO\2017\COMMUNITY\VC\TOOLS\MSVC\14.14.26428\INCLUDE\LIMITS.H
C:\PROGRAM FILES (X86)\WINDOWS KITS\10\INCLUDE\10.0.10240.0\UCRT\MATH.H
C:\PROGRAM FILES (X86)\MICROSOFT VISUAL STUDIO\2017\COMMUNITY\VC\TOOLS\MSVC\14.14.26428\INCLUDE\LIMITS
C:\PROGRAM FILES (X86)\MICROSOFT VISUAL STUDIO\2017\COMMUNITY\VC\TOOLS\MSVC\14.14.26428\INCLUDE\YMATH.H
C:\PROGRAM FILES (X86)\MICROSOFT VISUAL STUDIO\2017\COMMUNITY\VC\TOOLS\MSVC\14.14.26428\INCLUDE\CFLOAT
C:\PROGRAM FILES (X86)\WINDOWS KITS\10\INCLUDE\10.0.10240.0\UCRT\FLOAT.H
C:\PROGRAM FILES (X86)\MICROSOFT VISUAL STUDIO\2017\COMMUNITY\VC\TOOLS\MSVC\14.14.26428\INCLUDE\CLIMITS
C:\PROGRAM FILES (X86)\MICROSOFT VISUAL STUDIO\2017\COMMUNITY\VC\TOOLS\MSVC\14.14.26428\INCLUDE\CMATH
C:\PROGRAM FILES (X86)\MICROSOFT VISUAL STUDIO\2017\COMMUNITY\VC\TOOLS\MSVC\14.14.26428\INCLUDE\XTGMATH.H
C:\PROGRAM FILES (X86)\MICROSOFT VISUAL STUDIO\2017\COMMUNITY\VC\TOOLS\MSVC\14.14.26428\INCLUDE\XTR1COMMON
C:\PROGRAM FILES (X86)\MICROSOFT VISUAL STUDIO\2017\COMMUNITY\VC\TOOLS\MSVC\14.14.26428\INCLUDE\CWCHAR
C:\PROGRAM FILES (X86)\WINDOWS KITS\10\INCLUDE\10.0.10240.0\UCRT\WCHAR.H
C:\PROGRAM FILES (X86)\WINDOWS KITS\10\INCLUDE\10.0.10240.0\UCRT\CORECRT_MEMCPY_S.H
C:\PROGRAM FILES (X86)\WINDOWS KITS\10\INCLUDE\10.0.10240.0\UCRT\ERRNO.H
C:\PROGRAM FILES (X86)\MICROSOFT VISUAL STUDIO\2017\COMMUNITY\VC\TOOLS\MSVC\14.14.26428\INCLUDE\VCRUNTIME_STRING.H
C:\PROGRAM FILES (X86)\WINDOWS KITS\10\INCLUDE\10.0.10240.0\UCRT\CORECRT_WCONIO.H
C:\PROGRAM FILES (X86)\WINDOWS KITS\10\INCLUDE\10.0.10240.0\UCRT\CORECRT_STDIO_CONFIG.H
C:\PROGRAM FILES (X86)\WINDOWS KITS\10\INCLUDE\10.0.10240.0\UCRT\CORECRT_WCTYPE.H
C:\PROGRAM FILES (X86)\WINDOWS KITS\10\INCLUDE\10.0.10240.0\UCRT\CORECRT_WDIRECT.H
C:\PROGRAM FILES (X86)\WINDOWS KITS\10\INCLUDE\10.0.10240.0\UCRT\CORECRT_WIO.H
C:\PROGRAM FILES (X86)\WINDOWS KITS\10\INCLUDE\10.0.10240.0\UCRT\CORECRT_SHARE.H
C:\PROGRAM FILES (X86)\WINDOWS KITS\10\INCLUDE\10.0.10240.0\UCRT\CORECRT_WPROCESS.H
C:\PROGRAM FILES (X86)\WINDOWS KITS\10\INCLUDE\10.0.10240.0\UCRT\CORECRT_WSTDIO.H
C:\PROGRAM FILES (X86)\WINDOWS KITS\10\INCLUDE\10.0.10240.0\UCRT\CORECRT_WSTRING.H
C:\PROGRAM FILES (X86)\WINDOWS KITS\10\INCLUDE\10.0.10240.0\UCRT\CORECRT_WTIME.H
C:\PROGRAM FILES (X86)\WINDOWS KITS\10\INCLUDE\10.0.10240.0\UCRT\SYS\STAT.H
C:\PROGRAM FILES (X86)\WINDOWS KITS\10\INCLUDE\10.0.10240.0\UCRT\SYS\TYPES.H
C:\PROGRAM FILES (X86)\MICROSOFT VISUAL STUDIO\2017\COMMUNITY\VC\TOOLS\MSVC\14.14.26428\INCLUDE\XSTDDEF
C:\PROGRAM FILES (X86)\MICROSOFT VISUAL STUDIO\2017\COMMUNITY\VC\TOOLS\MSVC\14.14.26428\INCLUDE\CSTDDEF
C:\PROGRAM FILES (X86)\MICROSOFT VISUAL STUDIO\2017\COMMUNITY\VC\TOOLS\MSVC\14.14.26428\INCLUDE\INITIALIZER_LIST
C:\PROGRAM FILES (X86)\MICROSOFT VISUAL STUDIO\2017\COMMUNITY\VC\TOOLS\MSVC\14.14.26428\INCLUDE\NEW
C:\PROGRAM FILES (X86)\MICROSOFT VISUAL STUDIO\2017\COMMUNITY\VC\TOOLS\MSVC\14.14.26428\INCLUDE\EXCEPTION
C:\PROGRAM FILES (X86)\MICROSOFT VISUAL STUDIO\2017\COMMUNITY\VC\TOOLS\MSVC\14.14.26428\INCLUDE\TYPE_TRAITS
C:\PROGRAM FILES (X86)\WINDOWS KITS\10\INCLUDE\10.0.10240.0\UCRT\MALLOC.H
C:\PROGRAM FILES (X86)\MICROSOFT VISUAL STUDIO\2017\COMMUNITY\VC\TOOLS\MSVC\14.14.26428\INCLUDE\VCRUNTIME_EXCEPTION.H
C:\PROGRAM FILES (X86)\MICROSOFT VISUAL STUDIO\2017\COMMUNITY\VC\TOOLS\MSVC\14.14.26428\INCLUDE\EH.H
C:\PROGRAM FILES (X86)\WINDOWS KITS\10\INCLUDE\10.0.10240.0\UCRT\CORECRT_TERMINATE.H
C:\PROGRAM FILES (X86)\MICROSOFT VISUAL STUDIO\2017\COMMUNITY\VC\TOOLS\MSVC\14.14.26428\INCLUDE\VCRUNTIME_NEW.H
C:\PROGRAM FILES (X86)\MICROSOFT VISUAL STUDIO\2017\COMMUNITY\VC\TOOLS\MSVC\14.14.26428\INCLUDE\XUTILITY
C:\PROGRAM FILES (X86)\MICROSOFT VISUAL STUDIO\2017\COMMUNITY\VC\TOOLS\MSVC\14.14.26428\INCLUDE\UTILITY
C:\PROGRAM FILES (X86)\MICROSOFT VISUAL STUDIO\2017\COMMUNITY\VC\TOOLS\MSVC\14.14.26428\INCLUDE\IOSFWD
C:\PROGRAM FILES (X86)\MICROSOFT VISUAL STUDIO\2017\COMMUNITY\VC\TOOLS\MSVC\14.14.26428\INCLUDE\CSTDIO
C:\PROGRAM FILES (X86)\WINDOWS KITS\10\INCLUDE\10.0.10240.0\UCRT\STDIO.H
C:\PROGRAM FILES (X86)\MICROSOFT VISUAL STUDIO\2017\COMMUNITY\VC\TOOLS\MSVC\14.14.26428\INCLUDE\CSTRING
C:\PROGRAM FILES (X86)\WINDOWS KITS\10\INCLUDE\10.0.10240.0\UCRT\STRING.H
C:\PROGRAM FILES (X86)\WINDOWS KITS\10\INCLUDE\10.0.10240.0\UCRT\CORECRT_MEMORY.H
C:\PROGRAM FILES (X86)\WINDOWS KITS\10\INCLUDE\10.0.10240.0\UCRT\CRTDBG.H
C:\PROGRAM FILES (X86)\MICROSOFT VISUAL STUDIO\2017\COMMUNITY\VC\TOOLS\MSVC\14.14.26428\INCLUDE\VCRUNTIME_NEW_DEBUG.H
C:\PROGRAM FILES (X86)\MICROSOFT VISUAL STUDIO\2017\COMMUNITY\VC\TOOLS\MSVC\14.14.26428\INCLUDE\XATOMIC0.H
C:\PROGRAM FILES (X86)\MICROSOFT VISUAL STUDIO\2017\COMMUNITY\VC\TOOLS\MSVC\14.14.26428\INCLUDE\INTRIN0.H
C:\PROGRAM FILES (X86)\MICROSOFT VISUAL STUDIO\2017\COMMUNITY\VC\TOOLS\MSVC\14.14.26428\INCLUDE\STDEXCEPT
C:\PROGRAM FILES (X86)\MICROSOFT VISUAL STUDIO\2017\COMMUNITY\VC\TOOLS\MSVC\14.14.26428\INCLUDE\XSTRING
C:\USERS\VICTO\DESKTOP\MYSPONZA\BUILD\INCLUDE\TGL\TGL.H
C:\USERS\VICTO\DESKTOP\MYSPONZA\BUILD\INCLUDE\GL\GLCOREARB.H
C:\USERS\VICTO\DESKTOP\MYSPONZA\EXTERNAL\INCLUDE\GLM\COMMON.HPP
C:\USERS\VICTO\DESKTOP\MYSPONZA\EXTERNAL\INCLUDE\GLM\DETAIL\FUNC_COMMON.HPP
C:\USERS\VICTO\DESKTOP\MYSPONZA\EXTERNAL\INCLUDE\GLM\DETAIL\SETUP.HPP
C:\PROGRAM FILES (X86)\MICROSOFT VISUAL STUDIO\2017\COMMUNITY\VC\TOOLS\MSVC\14.14.26428\INCLUDE\CASSERT
C:\PROGRAM FILES (X86)\WINDOWS KITS\10\INCLUDE\10.0.10240.0\UCRT\ASSERT.H
C:\USERS\VICTO\DESKTOP\MYSPONZA\EXTERNAL\INCLUDE\GLM\SIMD\PLATFORM.H
C:\PROGRAM FILES (X86)\MICROSOFT VISUAL STUDIO\2017\COMMUNITY\VC\TOOLS\MSVC\14.14.26428\INCLUDE\EMMINTRIN.H
C:\PROGRAM FILES (X86)\MICROSOFT VISUAL STUDIO\2017\COMMUNITY\VC\TOOLS\MSVC\14.14.26428\INCLUDE\XMMINTRIN.H
C:\PROGRAM FILES (X86)\MICROSOFT VISUAL STUDIO\2017\COMMUNITY\VC\TOOLS\MSVC\14.14.26428\INCLUDE\MMINTRIN.H
C:\USERS\VICTO\DESKTOP\MYSPONZA\EXTERNAL\INCLUDE\GLM\DETAIL\PRECISION.HPP
C:\USERS\VICTO\DESKTOP\MYSPONZA\EXTERNAL\INCLUDE\GLM\DETAIL\TYPE_INT.HPP
C:\USERS\VICTO\DESKTOP\MYSPONZA\EXTERNAL\INCLUDE\GLM\DETAIL\_FIXES.HPP
C:\USERS\VICTO\DESKTOP\MYSPONZA\EXTERNAL\INCLUDE\GLM\DETAIL\FUNC_COMMON.INL
C:\USERS\VICTO\DESKTOP\MYSPONZA\EXTERNAL\INCLUDE\GLM\DETAIL\FUNC_VECTOR_RELATIONAL.HPP
C:\USERS\VICTO\DESKTOP\MYSPONZA\EXTERNAL\INCLUDE\GLM\DETAIL\FUNC_VECTOR_RELATIONAL.INL
C:\USERS\VICTO\DESKTOP\MYSPONZA\EXTERNAL\INCLUDE\GLM\DETAIL\FUNC_VECTOR_RELATIONAL_SIMD.INL
C:\USERS\VICTO\DESKTOP\MYSPONZA\EXTERNAL\INCLUDE\GLM\DETAIL\TYPE_VEC2.HPP
C:\USERS\VICTO\DESKTOP\MYSPONZA\EXTERNAL\INCLUDE\GLM\DETAIL\TYPE_VEC.HPP
C:\USERS\VICTO\DESKTOP\MYSPONZA\EXTERNAL\INCLUDE\GLM\DETAIL\TYPE_VEC2.INL
C:\USERS\VICTO\DESKTOP\MYSPONZA\EXTERNAL\INCLUDE\GLM\DETAIL\TYPE_VEC3.HPP
C:\USERS\VICTO\DESKTOP\MYSPONZA\EXTERNAL\INCLUDE\GLM\DETAIL\TYPE_VEC3.INL
C:\USERS\VICTO\DESKTOP\MYSPONZA\EXTERNAL\INCLUDE\GLM\DETAIL\TYPE_VEC4.HPP
C:\USERS\VICTO\DESKTOP\MYSPONZA\EXTERNAL\INCLUDE\GLM\DETAIL\TYPE_VEC4.INL
C:\USERS\VICTO\DESKTOP\MYSPONZA\EXTERNAL\INCLUDE\GLM\DETAIL\TYPE_VEC4_SIMD.INL
C:\USERS\VICTO\DESKTOP\MYSPONZA\EXTERNAL\INCLUDE\GLM\DETAIL\_VECTORIZE.HPP
C:\USERS\VICTO\DESKTOP\MYSPONZA\EXTERNAL\INCLUDE\GLM\DETAIL\TYPE_VEC1.HPP
C:\USERS\VICTO\DESKTOP\MYSPONZA\EXTERNAL\INCLUDE\GLM\FWD.HPP
C:\USERS\VICTO\DESKTOP\MYSPONZA\EXTERNAL\INCLUDE\GLM\DETAIL\TYPE_FLOAT.HPP
C:\USERS\VICTO\DESKTOP\MYSPONZA\EXTERNAL\INCLUDE\GLM\DETAIL\TYPE_MAT.HPP
C:\USERS\VICTO\DESKTOP\MYSPONZA\EXTERNAL\INCLUDE\GLM\DETAIL\TYPE_VEC1.INL
C:\USERS\VICTO\DESKTOP\MYSPONZA\EXTERNAL\INCLUDE\GLM\DETAIL\FUNC_COMMON_SIMD.INL
C:\USERS\VICTO\DESKTOP\MYSPONZA\EXTERNAL\INCLUDE\GLM\SIMD\COMMON.H
C:\PROGRAM FILES (X86)\MICROSOFT VISUAL STUDIO\2017\COMMUNITY\VC\TOOLS\MSVC\14.14.26428\INCLUDE\IMMINTRIN.H
C:\PROGRAM FILES (X86)\MICROSOFT VISUAL STUDIO\2017\COMMUNITY\VC\TOOLS\MSVC\14.14.26428\INCLUDE\WMMINTRIN.H
C:\PROGRAM FILES (X86)\MICROSOFT VISUAL STUDIO\2017\COMMUNITY\VC\TOOLS\MSVC\14.14.26428\INCLUDE\NMMINTRIN.H
C:\PROGRAM FILES (X86)\MICROSOFT VISUAL STUDIO\2017\COMMUNITY\VC\TOOLS\MSVC\14.14.26428\INCLUDE\SMMINTRIN.H
C:\PROGRAM FILES (X86)\MICROSOFT VISUAL STUDIO\2017\COMMUNITY\VC\TOOLS\MSVC\14.14.26428\INCLUDE\TMMINTRIN.H
C:\PROGRAM FILES (X86)\MICROSOFT VISUAL STUDIO\2017\COMMUNITY\VC\TOOLS\MSVC\14.14.26428\INCLUDE\PMMINTRIN.H
C:\PROGRAM FILES (X86)\MICROSOFT VISUAL STUDIO\2017\COMMUNITY\VC\TOOLS\MSVC\14.14.26428\INCLUDE\ZMMINTRIN.H
C:\USERS\VICTO\DESKTOP\MYSPONZA\EXTERNAL\INCLUDE\GLM\GTC\MATRIX_TRANSFORM.HPP
C:\USERS\VICTO\DESKTOP\MYSPONZA\EXTERNAL\INCLUDE\GLM\MAT4X4.HPP
C:\USERS\VICTO\DESKTOP\MYSPONZA\EXTERNAL\INCLUDE\GLM\DETAIL\TYPE_MAT4X4.HPP
C:\USERS\VICTO\DESKTOP\MYSPONZA\EXTERNAL\INCLUDE\GLM\DETAIL\TYPE_MAT4X4.INL
C:\USERS\VICTO\DESKTOP\MYSPONZA\EXTERNAL\INCLUDE\GLM\DETAIL\FUNC_MATRIX.HPP
C:\USERS\VICTO\DESKTOP\MYSPONZA\EXTERNAL\INCLUDE\GLM\VEC2.HPP
C:\USERS\VICTO\DESKTOP\MYSPONZA\EXTERNAL\INCLUDE\GLM\VEC3.HPP
C:\USERS\VICTO\DESKTOP\MYSPONZA\EXTERNAL\INCLUDE\GLM\VEC4.HPP
C:\USERS\VICTO\DESKTOP\MYSPONZA\EXTERNAL\INCLUDE\GLM\MAT2X2.HPP
C:\USERS\VICTO\DESKTOP\MYSPONZA\EXTERNAL\INCLUDE\GLM\DETAIL\TYPE_MAT2X2.HPP
C:\USERS\VICTO\DESKTOP\MYSPONZA\EXTERNAL\INCLUDE\GLM\DETAIL\TYPE_MAT2X2.INL
C:\USERS\VICTO\DESKTOP\MYSPONZA\EXTERNAL\INCLUDE\GLM\MAT2X3.HPP
C:\USERS\VICTO\DESKTOP\MYSPONZA\EXTERNAL\INCLUDE\GLM\DETAIL\TYPE_MAT2X3.HPP
C:\USERS\VICTO\DESKTOP\MYSPONZA\EXTERNAL\INCLUDE\GLM\DETAIL\TYPE_MAT2X3.INL
C:\USERS\VICTO\DESKTOP\MYSPONZA\EXTERNAL\INCLUDE\GLM\MAT2X4.HPP
C:\USERS\VICTO\DESKTOP\MYSPONZA\EXTERNAL\INCLUDE\GLM\DETAIL\TYPE_MAT2X4.HPP
C:\USERS\VICTO\DESKTOP\MYSPONZA\EXTERNAL\INCLUDE\GLM\DETAIL\TYPE_MAT2X4.INL
C:\USERS\VICTO\DESKTOP\MYSPONZA\EXTERNAL\INCLUDE\GLM\MAT3X2.HPP
C:\USERS\VICTO\DESKTOP\MYSPONZA\EXTERNAL\INCLUDE\GLM\DETAIL\TYPE_MAT3X2.HPP
C:\USERS\VICTO\DESKTOP\MYSPONZA\EXTERNAL\INCLUDE\GLM\DETAIL\TYPE_MAT3X2.INL
C:\USERS\VICTO\DESKTOP\MYSPONZA\EXTERNAL\INCLUDE\GLM\MAT3X3.HPP
C:\USERS\VICTO\DESKTOP\MYSPONZA\EXTERNAL\INCLUDE\GLM\DETAIL\TYPE_MAT3X3.HPP
C:\USERS\VICTO\DESKTOP\MYSPONZA\EXTERNAL\INCLUDE\GLM\DETAIL\TYPE_MAT3X3.INL
C:\USERS\VICTO\DESKTOP\MYSPONZA\EXTERNAL\INCLUDE\GLM\MAT3X4.HPP
C:\USERS\VICTO\DESKTOP\MYSPONZA\EXTERNAL\INCLUDE\GLM\DETAIL\TYPE_MAT3X4.HPP
C:\USERS\VICTO\DESKTOP\MYSPONZA\EXTERNAL\INCLUDE\GLM\DETAIL\TYPE_MAT3X4.INL
C:\USERS\VICTO\DESKTOP\MYSPONZA\EXTERNAL\INCLUDE\GLM\MAT4X2.HPP
C:\USERS\VICTO\DESKTOP\MYSPONZA\EXTERNAL\INCLUDE\GLM\DETAIL\TYPE_MAT4X2.HPP
C:\USERS\VICTO\DESKTOP\MYSPONZA\EXTERNAL\INCLUDE\GLM\DETAIL\TYPE_MAT4X2.INL
C:\USERS\VICTO\DESKTOP\MYSPONZA\EXTERNAL\INCLUDE\GLM\MAT4X3.HPP
C:\USERS\VICTO\DESKTOP\MYSPONZA\EXTERNAL\INCLUDE\GLM\DETAIL\TYPE_MAT4X3.HPP
C:\USERS\VICTO\DESKTOP\MYSPONZA\EXTERNAL\INCLUDE\GLM\DETAIL\TYPE_MAT4X3.INL
C:\USERS\VICTO\DESKTOP\MYSPONZA\EXTERNAL\INCLUDE\GLM\DETAIL\FUNC_MATRIX.INL
C:\USERS\VICTO\DESKTOP\MYSPONZA\EXTERNAL\INCLUDE\GLM\GEOMETRIC.HPP
C:\USERS\VICTO\DESKTOP\MYSPONZA\EXTERNAL\INCLUDE\GLM\DETAIL\FUNC_GEOMETRIC.HPP
C:\USERS\VICTO\DESKTOP\MYSPONZA\EXTERNAL\INCLUDE\GLM\DETAIL\FUNC_GEOMETRIC.INL
C:\USERS\VICTO\DESKTOP\MYSPONZA\EXTERNAL\INCLUDE\GLM\DETAIL\FUNC_EXPONENTIAL.HPP
C:\USERS\VICTO\DESKTOP\MYSPONZA\EXTERNAL\INCLUDE\GLM\DETAIL\FUNC_EXPONENTIAL.INL
C:\USERS\VICTO\DESKTOP\MYSPONZA\EXTERNAL\INCLUDE\GLM\DETAIL\FUNC_EXPONENTIAL_SIMD.INL
C:\USERS\VICTO\DESKTOP\MYSPONZA\EXTERNAL\INCLUDE\GLM\SIMD\EXPONENTIAL.H
C:\USERS\VICTO\DESKTOP\MYSPONZA\EXTERNAL\INCLUDE\GLM\DETAIL\FUNC_GEOMETRIC_SIMD.INL
C:\USERS\VICTO\DESKTOP\MYSPONZA\EXTERNAL\INCLUDE\GLM\SIMD\GEOMETRIC.H
C:\USERS\VICTO\DESKTOP\MYSPONZA\EXTERNAL\INCLUDE\GLM\DETAIL\FUNC_MATRIX_SIMD.INL
C:\USERS\VICTO\DESKTOP\MYSPONZA\EXTERNAL\INCLUDE\GLM\SIMD\MATRIX.H
C:\USERS\VICTO\DESKTOP\MYSPONZA\EXTERNAL\INCLUDE\GLM\DETAIL\TYPE_MAT4X4_SIMD.INL
C:\USERS\VICTO\DESKTOP\MYSPONZA\EXTERNAL\INCLUDE\GLM\GTC\CONSTANTS.HPP
C:\USERS\VICTO\DESKTOP\MYSPONZA\EXTERNAL\INCLUDE\GLM\GTC\CONSTANTS.INL
C:\USERS\VICTO\DESKTOP\MYSPONZA\EXTERNAL\INCLUDE\GLM\GTC\MATRIX_TRANSFORM.INL
C:\USERS\VICTO\DESKTOP\MYSPONZA\EXTERNAL\INCLUDE\GLM\TRIGONOMETRIC.HPP
C:\USERS\VICTO\DESKTOP\MYSPONZA\EXTERNAL\INCLUDE\GLM\DETAIL\FUNC_TRIGONOMETRIC.HPP
C:\USERS\VICTO\DESKTOP\MYSPONZA\EXTERNAL\INCLUDE\GLM\DETAIL\FUNC_TRIGONOMETRIC.INL
C:\USERS\VICTO\DESKTOP\MYSPONZA\EXTERNAL\INCLUDE\GLM\DETAIL\FUNC_TRIGONOMETRIC_SIMD.INL
C:\USERS\VICTO\DESKTOP\MYSPONZA\EXTERNAL\INCLUDE\GLM\MATRIX.HPP
C:\USERS\VICTO\DESKTOP\MYSPONZA\DEFERMYSPONZA\SOURCE\MULTIPLECLASS.H
C:\USERS\VICTO\DESKTOP\MYSPONZA\BUILD\INCLUDE\TYGRA\FILEHELPER.HPP
C:\USERS\VICTO\DESKTOP\MYSPONZA\BUILD\INCLUDE\TYGRA\IMAGE.HPP
C:\USERS\VICTO\DESKTOP\MYSPONZA\EXTERNAL\INCLUDE\TDL\TDL.H
C:\PROGRAM FILES (X86)\MICROSOFT VISUAL STUDIO\2017\COMMUNITY\VC\TOOLS\MSVC\14.14.26428\INCLUDE\STRING
C:\PROGRAM FILES (X86)\MICROSOFT VISUAL STUDIO\2017\COMMUNITY\VC\TOOLS\MSVC\14.14.26428\INCLUDE\ISTREAM
C:\PROGRAM FILES (X86)\MICROSOFT VISUAL STUDIO\2017\COMMUNITY\VC\TOOLS\MSVC\14.14.26428\INCLUDE\OSTREAM
C:\PROGRAM FILES (X86)\MICROSOFT VISUAL STUDIO\2017\COMMUNITY\VC\TOOLS\MSVC\14.14.26428\INCLUDE\IOS
C:\PROGRAM FILES (X86)\MICROSOFT VISUAL STUDIO\2017\COMMUNITY\VC\TOOLS\MSVC\14.14.26428\INCLUDE\XLOCNUM
C:\PROGRAM FILES (X86)\MICROSOFT VISUAL STUDIO\2017\COMMUNITY\VC\TOOLS\MSVC\14.14.26428\INCLUDE\STREAMBUF
C:\PROGRAM FILES (X86)\MICROSOFT VISUAL STUDIO\2017\COMMUNITY\VC\TOOLS\MSVC\14.14.26428\INCLUDE\XIOSBASE
C:\PROGRAM FILES (X86)\MICROSOFT VISUAL STUDIO\2017\COMMUNITY\VC\TOOLS\MSVC\14.14.26428\INCLUDE\XLOCALE
C:\PROGRAM FILES (X86)\MICROSOFT VISUAL STUDIO\2017\COMMUNITY\VC\TOOLS\MSVC\14.14.26428\INCLUDE\TYPEINFO
C:\PROGRAM FILES (X86)\MICROSOFT VISUAL STUDIO\2017\COMMUNITY\VC\TOOLS\MSVC\14.14.26428\INCLUDE\VCRUNTIME_TYPEINFO.H
C:\PROGRAM FILES (X86)\MICROSOFT VISUAL STUDIO\2017\COMMUNITY\VC\TOOLS\MSVC\14.14.26428\INCLUDE\XLOCINFO
C:\PROGRAM FILES (X86)\MICROSOFT VISUAL STUDIO\2017\COMMUNITY\VC\TOOLS\MSVC\14.14.26428\INCLUDE\XLOCINFO.H
C:\PROGRAM FILES (X86)\WINDOWS KITS\10\INCLUDE\10.0.10240.0\UCRT\CTYPE.H
C:\PROGRAM FILES (X86)\WINDOWS KITS\10\INCLUDE\10.0.10240.0\UCRT\LOCALE.H
C:\PROGRAM FILES (X86)\MICROSOFT VISUAL STUDIO\2017\COMMUNITY\VC\TOOLS\MSVC\14.14.26428\INCLUDE\MEMORY
C:\PROGRAM FILES (X86)\MICROSOFT VISUAL STUDIO\2017\COMMUNITY\VC\TOOLS\MSVC\14.14.26428\INCLUDE\XFACET
C:\PROGRAM FILES (X86)\MICROSOFT VISUAL STUDIO\2017\COMMUNITY\VC\TOOLS\MSVC\14.14.26428\INCLUDE\SYSTEM_ERROR
C:\PROGRAM FILES (X86)\MICROSOFT VISUAL STUDIO\2017\COMMUNITY\VC\TOOLS\MSVC\14.14.26428\INCLUDE\CERRNO
C:\PROGRAM FILES (X86)\MICROSOFT VISUAL STUDIO\2017\COMMUNITY\VC\TOOLS\MSVC\14.14.26428\INCLUDE\XCALL_ONCE.H
C:\PROGRAM FILES (X86)\MICROSOFT VISUAL STUDIO\2017\COMMUNITY\VC\TOOLS\MSVC\14.14.26428\INCLUDE\XERRC.H
C:\PROGRAM FILES (X86)\WINDOWS KITS\10\INCLUDE\10.0.10240.0\UCRT\SHARE.H
C:\PROGRAM FILES (X86)\MICROSOFT VISUAL STUDIO\2017\COMMUNITY\VC\TOOLS\MSVC\14.14.26428\INCLUDE\XSTRING_INSERT.H
C:\PROGRAM FILES (X86)\MICROSOFT VISUAL STUDIO\2017\COMMUNITY\VC\TOOLS\MSVC\14.14.26428\INCLUDE\IOSTREAM
^C:\USERS\VICTO\DESKTOP\MYSPONZA\DEFERMYSPONZA\SOURCE\MYCONTROLLER.CPP
C:\USERS\VICTO\DESKTOP\MYSPONZA\DEFERMYSPONZA\SOURCE\MYCONTROLLER.HPP
C:\USERS\VICTO\DESKTOP\MYSPONZA\BUILD\INCLUDE\TYGRA\WINDOWCONTROLDELEGATE.HPP
C:\USERS\VICTO\DESKTOP\MYSPONZA\BUILD\INCLUDE\SPONZA\SPONZA_FWD.HPP
C:\USERS\VICTO\DESKTOP\MYSPONZA\BUILD\INCLUDE\SPONZA\TYPES.HPP
C:\USERS\VICTO\DESKTOP\MYSPONZA\BUILD\INCLUDE\SPONZA\CONFIG.HPP
C:\USERS\VICTO\DESKTOP\MYSPONZA\DEFERMYSPONZA\SOURCE\MYVIEW.HPP
C:\USERS\VICTO\DESKTOP\MYSPONZA\BUILD\INCLUDE\TYGRA\WINDOWVIEWDELEGATE.HPP
C:\USERS\VICTO\DESKTOP\MYSPONZA\BUILD\INCLUDE\TGL\TGL.H
C:\USERS\VICTO\DESKTOP\MYSPONZA\BUILD\INCLUDE\GL\GLCOREARB.H
C:\PROGRAM FILES (X86)\WINDOWS KITS\10\INCLUDE\10.0.10240.0\UCRT\STDDEF.H
C:\PROGRAM FILES (X86)\WINDOWS KITS\10\INCLUDE\10.0.10240.0\UCRT\CORECRT.H
C:\PROGRAM FILES (X86)\MICROSOFT VISUAL STUDIO\2017\COMMUNITY\VC\TOOLS\MSVC\14.14.26428\INCLUDE\VCRUNTIME.H
C:\PROGRAM FILES (X86)\MICROSOFT VISUAL STUDIO\2017\COMMUNITY\VC\TOOLS\MSVC\14.14.26428\INCLUDE\SAL.H
C:\PROGRAM FILES (X86)\MICROSOFT VISUAL STUDIO\2017\COMMUNITY\VC\TOOLS\MSVC\14.14.26428\INCLUDE\CONCURRENCYSAL.H
C:\PROGRAM FILES (X86)\MICROSOFT VISUAL STUDIO\2017\COMMUNITY\VC\TOOLS\MSVC\14.14.26428\INCLUDE\VADEFS.H
C:\USERS\VICTO\DESKTOP\MYSPONZA\EXTERNAL\INCLUDE\GLM\GLM.HPP
C:\USERS\VICTO\DESKTOP\MYSPONZA\EXTERNAL\INCLUDE\GLM\DETAIL\_FIXES.HPP
C:\PROGRAM FILES (X86)\MICROSOFT VISUAL STUDIO\2017\COMMUNITY\VC\TOOLS\MSVC\14.14.26428\INCLUDE\CMATH
C:\PROGRAM FILES (X86)\MICROSOFT VISUAL STUDIO\2017\COMMUNITY\VC\TOOLS\MSVC\14.14.26428\INCLUDE\CSTDLIB
C:\PROGRAM FILES (X86)\MICROSOFT VISUAL STUDIO\2017\COMMUNITY\VC\TOOLS\MSVC\14.14.26428\INCLUDE\YVALS.H
C:\PROGRAM FILES (X86)\MICROSOFT VISUAL STUDIO\2017\COMMUNITY\VC\TOOLS\MSVC\14.14.26428\INCLUDE\XKEYCHECK.H
C:\PROGRAM FILES (X86)\MICROSOFT VISUAL STUDIO\2017\COMMUNITY\VC\TOOLS\MSVC\14.14.26428\INCLUDE\CRTDEFS.H
C:\PROGRAM FILES (X86)\MICROSOFT VISUAL STUDIO\2017\COMMUNITY\VC\TOOLS\MSVC\14.14.26428\INCLUDE\USE_ANSI.H
C:\PROGRAM FILES (X86)\WINDOWS KITS\10\INCLUDE\10.0.10240.0\UCRT\STDLIB.H
C:\PROGRAM FILES (X86)\WINDOWS KITS\10\INCLUDE\10.0.10240.0\UCRT\CORECRT_MALLOC.H
C:\PROGRAM FILES (X86)\WINDOWS KITS\10\INCLUDE\10.0.10240.0\UCRT\CORECRT_SEARCH.H
C:\PROGRAM FILES (X86)\WINDOWS KITS\10\INCLUDE\10.0.10240.0\UCRT\CORECRT_WSTDLIB.H
C:\PROGRAM FILES (X86)\MICROSOFT VISUAL STUDIO\2017\COMMUNITY\VC\TOOLS\MSVC\14.14.26428\INCLUDE\LIMITS.H
C:\PROGRAM FILES (X86)\WINDOWS KITS\10\INCLUDE\10.0.10240.0\UCRT\MATH.H
C:\PROGRAM FILES (X86)\MICROSOFT VISUAL STUDIO\2017\COMMUNITY\VC\TOOLS\MSVC\14.14.26428\INCLUDE\XTGMATH.H
C:\PROGRAM FILES (X86)\MICROSOFT VISUAL STUDIO\2017\COMMUNITY\VC\TOOLS\MSVC\14.14.26428\INCLUDE\XTR1COMMON
C:\PROGRAM FILES (X86)\MICROSOFT VISUAL STUDIO\2017\COMMUNITY\VC\TOOLS\MSVC\14.14.26428\INCLUDE\CLIMITS
C:\PROGRAM FILES (X86)\MICROSOFT VISUAL STUDIO\2017\COMMUNITY\VC\TOOLS\MSVC\14.14.26428\INCLUDE\CFLOAT
C:\PROGRAM FILES (X86)\WINDOWS KITS\10\INCLUDE\10.0.10240.0\UCRT\FLOAT.H
C:\PROGRAM FILES (X86)\MICROSOFT VISUAL STUDIO\2017\COMMUNITY\VC\TOOLS\MSVC\14.14.26428\INCLUDE\LIMITS
C:\PROGRAM FILES (X86)\MICROSOFT VISUAL STUDIO\2017\COMMUNITY\VC\TOOLS\MSVC\14.14.26428\INCLUDE\YMATH.H
C:\PROGRAM FILES (X86)\MICROSOFT VISUAL STUDIO\2017\COMMUNITY\VC\TOOLS\MSVC\14.14.26428\INCLUDE\CWCHAR
C:\PROGRAM FILES (X86)\WINDOWS KITS\10\INCLUDE\10.0.10240.0\UCRT\WCHAR.H
C:\PROGRAM FILES (X86)\WINDOWS KITS\10\INCLUDE\10.0.10240.0\UCRT\CORECRT_MEMCPY_S.H
C:\PROGRAM FILES (X86)\WINDOWS KITS\10\INCLUDE\10.0.10240.0\UCRT\ERRNO.H
C:\PROGRAM FILES (X86)\MICROSOFT VISUAL STUDIO\2017\COMMUNITY\VC\TOOLS\MSVC\14.14.26428\INCLUDE\VCRUNTIME_STRING.H
C:\PROGRAM FILES (X86)\WINDOWS KITS\10\INCLUDE\10.0.10240.0\UCRT\CORECRT_WCONIO.H
C:\PROGRAM FILES (X86)\WINDOWS KITS\10\INCLUDE\10.0.10240.0\UCRT\CORECRT_STDIO_CONFIG.H
C:\PROGRAM FILES (X86)\WINDOWS KITS\10\INCLUDE\10.0.10240.0\UCRT\CORECRT_WCTYPE.H
C:\PROGRAM FILES (X86)\WINDOWS KITS\10\INCLUDE\10.0.10240.0\UCRT\CORECRT_WDIRECT.H
C:\PROGRAM FILES (X86)\WINDOWS KITS\10\INCLUDE\10.0.10240.0\UCRT\CORECRT_WIO.H
C:\PROGRAM FILES (X86)\WINDOWS KITS\10\INCLUDE\10.0.10240.0\UCRT\CORECRT_SHARE.H
C:\PROGRAM FILES (X86)\WINDOWS KITS\10\INCLUDE\10.0.10240.0\UCRT\CORECRT_WPROCESS.H
C:\PROGRAM FILES (X86)\WINDOWS KITS\10\INCLUDE\10.0.10240.0\UCRT\CORECRT_WSTDIO.H
C:\PROGRAM FILES (X86)\WINDOWS KITS\10\INCLUDE\10.0.10240.0\UCRT\CORECRT_WSTRING.H
C:\PROGRAM FILES (X86)\WINDOWS KITS\10\INCLUDE\10.0.10240.0\UCRT\CORECRT_WTIME.H
C:\PROGRAM FILES (X86)\WINDOWS KITS\10\INCLUDE\10.0.10240.0\UCRT\SYS\STAT.H
C:\PROGRAM FILES (X86)\WINDOWS KITS\10\INCLUDE\10.0.10240.0\UCRT\SYS\TYPES.H
C:\PROGRAM FILES (X86)\MICROSOFT VISUAL STUDIO\2017\COMMUNITY\VC\TOOLS\MSVC\14.14.26428\INCLUDE\XSTDDEF
C:\PROGRAM FILES (X86)\MICROSOFT VISUAL STUDIO\2017\COMMUNITY\VC\TOOLS\MSVC\14.14.26428\INCLUDE\CSTDDEF
C:\PROGRAM FILES (X86)\MICROSOFT VISUAL STUDIO\2017\COMMUNITY\VC\TOOLS\MSVC\14.14.26428\INCLUDE\INITIALIZER_LIST
C:\PROGRAM FILES (X86)\MICROSOFT VISUAL STUDIO\2017\COMMUNITY\VC\TOOLS\MSVC\14.14.26428\INCLUDE\CASSERT
C:\PROGRAM FILES (X86)\WINDOWS KITS\10\INCLUDE\10.0.10240.0\UCRT\ASSERT.H
C:\USERS\VICTO\DESKTOP\MYSPONZA\EXTERNAL\INCLUDE\GLM\FWD.HPP
C:\USERS\VICTO\DESKTOP\MYSPONZA\EXTERNAL\INCLUDE\GLM\DETAIL\TYPE_INT.HPP
C:\USERS\VICTO\DESKTOP\MYSPONZA\EXTERNAL\INCLUDE\GLM\DETAIL\SETUP.HPP
C:\USERS\VICTO\DESKTOP\MYSPONZA\EXTERNAL\INCLUDE\GLM\SIMD\PLATFORM.H
C:\PROGRAM FILES (X86)\MICROSOFT VISUAL STUDIO\2017\COMMUNITY\VC\TOOLS\MSVC\14.14.26428\INCLUDE\EMMINTRIN.H
C:\PROGRAM FILES (X86)\MICROSOFT VISUAL STUDIO\2017\COMMUNITY\VC\TOOLS\MSVC\14.14.26428\INCLUDE\XMMINTRIN.H
C:\PROGRAM FILES (X86)\MICROSOFT VISUAL STUDIO\2017\COMMUNITY\VC\TOOLS\MSVC\14.14.26428\INCLUDE\MMINTRIN.H
C:\PROGRAM FILES (X86)\WINDOWS KITS\10\INCLUDE\10.0.10240.0\UCRT\MALLOC.H
C:\PROGRAM FILES (X86)\MICROSOFT VISUAL STUDIO\2017\COMMUNITY\VC\TOOLS\MSVC\14.14.26428\INCLUDE\TYPE_TRAITS
C:\PROGRAM FILES (X86)\MICROSOFT VISUAL STUDIO\2017\COMMUNITY\VC\TOOLS\MSVC\14.14.26428\INCLUDE\CSTDINT
C:\PROGRAM FILES (X86)\MICROSOFT VISUAL STUDIO\2017\COMMUNITY\VC\TOOLS\MSVC\14.14.26428\INCLUDE\STDINT.H
C:\USERS\VICTO\DESKTOP\MYSPONZA\EXTERNAL\INCLUDE\GLM\DETAIL\TYPE_FLOAT.HPP
C:\USERS\VICTO\DESKTOP\MYSPONZA\EXTERNAL\INCLUDE\GLM\DETAIL\TYPE_VEC.HPP
C:\USERS\VICTO\DESKTOP\MYSPONZA\EXTERNAL\INCLUDE\GLM\DETAIL\PRECISION.HPP
C:\USERS\VICTO\DESKTOP\MYSPONZA\EXTERNAL\INCLUDE\GLM\DETAIL\TYPE_MAT.HPP
C:\USERS\VICTO\DESKTOP\MYSPONZA\EXTERNAL\INCLUDE\GLM\VEC2.HPP
C:\USERS\VICTO\DESKTOP\MYSPONZA\EXTERNAL\INCLUDE\GLM\DETAIL\TYPE_VEC2.HPP
C:\USERS\VICTO\DESKTOP\MYSPONZA\EXTERNAL\INCLUDE\GLM\DETAIL\TYPE_VEC2.INL
C:\USERS\VICTO\DESKTOP\MYSPONZA\EXTERNAL\INCLUDE\GLM\VEC3.HPP
C:\USERS\VICTO\DESKTOP\MYSPONZA\EXTERNAL\INCLUDE\GLM\DETAIL\TYPE_VEC3.HPP
C:\USERS\VICTO\DESKTOP\MYSPONZA\EXTERNAL\INCLUDE\GLM\DETAIL\TYPE_VEC3.INL
C:\USERS\VICTO\DESKTOP\MYSPONZA\EXTERNAL\INCLUDE\GLM\VEC4.HPP
C:\USERS\VICTO\DESKTOP\MYSPONZA\EXTERNAL\INCLUDE\GLM\DETAIL\TYPE_VEC4.HPP
C:\USERS\VICTO\DESKTOP\MYSPONZA\EXTERNAL\INCLUDE\GLM\DETAIL\TYPE_VEC4.INL
C:\USERS\VICTO\DESKTOP\MYSPONZA\EXTERNAL\INCLUDE\GLM\DETAIL\TYPE_VEC4_SIMD.INL
C:\USERS\VICTO\DESKTOP\MYSPONZA\EXTERNAL\INCLUDE\GLM\MAT2X2.HPP
C:\USERS\VICTO\DESKTOP\MYSPONZA\EXTERNAL\INCLUDE\GLM\DETAIL\TYPE_MAT2X2.HPP
C:\USERS\VICTO\DESKTOP\MYSPONZA\EXTERNAL\INCLUDE\GLM\DETAIL\TYPE_MAT2X2.INL
C:\USERS\VICTO\DESKTOP\MYSPONZA\EXTERNAL\INCLUDE\GLM\DETAIL\FUNC_MATRIX.HPP
C:\USERS\VICTO\DESKTOP\MYSPONZA\EXTERNAL\INCLUDE\GLM\MAT2X3.HPP
C:\USERS\VICTO\DESKTOP\MYSPONZA\EXTERNAL\INCLUDE\GLM\DETAIL\TYPE_MAT2X3.HPP
C:\USERS\VICTO\DESKTOP\MYSPONZA\EXTERNAL\INCLUDE\GLM\DETAIL\TYPE_MAT2X3.INL
C:\USERS\VICTO\DESKTOP\MYSPONZA\EXTERNAL\INCLUDE\GLM\MAT2X4.HPP
C:\USERS\VICTO\DESKTOP\MYSPONZA\EXTERNAL\INCLUDE\GLM\DETAIL\TYPE_MAT2X4.HPP
C:\USERS\VICTO\DESKTOP\MYSPONZA\EXTERNAL\INCLUDE\GLM\DETAIL\TYPE_MAT2X4.INL
C:\USERS\VICTO\DESKTOP\MYSPONZA\EXTERNAL\INCLUDE\GLM\MAT3X2.HPP
C:\USERS\VICTO\DESKTOP\MYSPONZA\EXTERNAL\INCLUDE\GLM\DETAIL\TYPE_MAT3X2.HPP
C:\USERS\VICTO\DESKTOP\MYSPONZA\EXTERNAL\INCLUDE\GLM\DETAIL\TYPE_MAT3X2.INL
C:\USERS\VICTO\DESKTOP\MYSPONZA\EXTERNAL\INCLUDE\GLM\MAT3X3.HPP
C:\USERS\VICTO\DESKTOP\MYSPONZA\EXTERNAL\INCLUDE\GLM\DETAIL\TYPE_MAT3X3.HPP
C:\USERS\VICTO\DESKTOP\MYSPONZA\EXTERNAL\INCLUDE\GLM\DETAIL\TYPE_MAT3X3.INL
C:\USERS\VICTO\DESKTOP\MYSPONZA\EXTERNAL\INCLUDE\GLM\MAT3X4.HPP
C:\USERS\VICTO\DESKTOP\MYSPONZA\EXTERNAL\INCLUDE\GLM\DETAIL\TYPE_MAT3X4.HPP
C:\USERS\VICTO\DESKTOP\MYSPONZA\EXTERNAL\INCLUDE\GLM\DETAIL\TYPE_MAT3X4.INL
C:\USERS\VICTO\DESKTOP\MYSPONZA\EXTERNAL\INCLUDE\GLM\MAT4X2.HPP
C:\USERS\VICTO\DESKTOP\MYSPONZA\EXTERNAL\INCLUDE\GLM\DETAIL\TYPE_MAT4X2.HPP
C:\USERS\VICTO\DESKTOP\MYSPONZA\EXTERNAL\INCLUDE\GLM\DETAIL\TYPE_MAT4X2.INL
C:\USERS\VICTO\DESKTOP\MYSPONZA\EXTERNAL\INCLUDE\GLM\MAT4X3.HPP
C:\USERS\VICTO\DESKTOP\MYSPONZA\EXTERNAL\INCLUDE\GLM\DETAIL\TYPE_MAT4X3.HPP
C:\USERS\VICTO\DESKTOP\MYSPONZA\EXTERNAL\INCLUDE\GLM\DETAIL\TYPE_MAT4X3.INL
C:\USERS\VICTO\DESKTOP\MYSPONZA\EXTERNAL\INCLUDE\GLM\MAT4X4.HPP
C:\USERS\VICTO\DESKTOP\MYSPONZA\EXTERNAL\INCLUDE\GLM\DETAIL\TYPE_MAT4X4.HPP
C:\USERS\VICTO\DESKTOP\MYSPONZA\EXTERNAL\INCLUDE\GLM\DETAIL\TYPE_MAT4X4.INL
C:\USERS\VICTO\DESKTOP\MYSPONZA\EXTERNAL\INCLUDE\GLM\DETAIL\TYPE_MAT4X4_SIMD.INL
C:\USERS\VICTO\DESKTOP\MYSPONZA\EXTERNAL\INCLUDE\GLM\DETAIL\FUNC_MATRIX.INL
C:\USERS\VICTO\DESKTOP\MYSPONZA\EXTERNAL\INCLUDE\GLM\GEOMETRIC.HPP
C:\USERS\VICTO\DESKTOP\MYSPONZA\EXTERNAL\INCLUDE\GLM\DETAIL\FUNC_GEOMETRIC.HPP
C:\USERS\VICTO\DESKTOP\MYSPONZA\EXTERNAL\INCLUDE\GLM\DETAIL\FUNC_GEOMETRIC.INL
C:\USERS\VICTO\DESKTOP\MYSPONZA\EXTERNAL\INCLUDE\GLM\DETAIL\FUNC_EXPONENTIAL.HPP
C:\USERS\VICTO\DESKTOP\MYSPONZA\EXTERNAL\INCLUDE\GLM\DETAIL\TYPE_VEC1.HPP
C:\USERS\VICTO\DESKTOP\MYSPONZA\EXTERNAL\INCLUDE\GLM\DETAIL\TYPE_VEC1.INL
C:\USERS\VICTO\DESKTOP\MYSPONZA\EXTERNAL\INCLUDE\GLM\DETAIL\FUNC_EXPONENTIAL.INL
C:\USERS\VICTO\DESKTOP\MYSPONZA\EXTERNAL\INCLUDE\GLM\DETAIL\FUNC_VECTOR_RELATIONAL.HPP
C:\USERS\VICTO\DESKTOP\MYSPONZA\EXTERNAL\INCLUDE\GLM\DETAIL\FUNC_VECTOR_RELATIONAL.INL
C:\USERS\VICTO\DESKTOP\MYSPONZA\EXTERNAL\INCLUDE\GLM\DETAIL\FUNC_VECTOR_RELATIONAL_SIMD.INL
C:\USERS\VICTO\DESKTOP\MYSPONZA\EXTERNAL\INCLUDE\GLM\DETAIL\_VECTORIZE.HPP
C:\USERS\VICTO\DESKTOP\MYSPONZA\EXTERNAL\INCLUDE\GLM\DETAIL\FUNC_EXPONENTIAL_SIMD.INL
C:\USERS\VICTO\DESKTOP\MYSPONZA\EXTERNAL\INCLUDE\GLM\SIMD\EXPONENTIAL.H
C:\USERS\VICTO\DESKTOP\MYSPONZA\EXTERNAL\INCLUDE\GLM\DETAIL\FUNC_COMMON.HPP
C:\USERS\VICTO\DESKTOP\MYSPONZA\EXTERNAL\INCLUDE\GLM\DETAIL\FUNC_COMMON.INL
C:\USERS\VICTO\DESKTOP\MYSPONZA\EXTERNAL\INCLUDE\GLM\DETAIL\FUNC_COMMON_SIMD.INL
C:\USERS\VICTO\DESKTOP\MYSPONZA\EXTERNAL\INCLUDE\GLM\SIMD\COMMON.H
C:\PROGRAM FILES (X86)\MICROSOFT VISUAL STUDIO\2017\COMMUNITY\VC\TOOLS\MSVC\14.14.26428\INCLUDE\IMMINTRIN.H
C:\PROGRAM FILES (X86)\MICROSOFT VISUAL STUDIO\2017\COMMUNITY\VC\TOOLS\MSVC\14.14.26428\INCLUDE\WMMINTRIN.H
C:\PROGRAM FILES (X86)\MICROSOFT VISUAL STUDIO\2017\COMMUNITY\VC\TOOLS\MSVC\14.14.26428\INCLUDE\NMMINTRIN.H
C:\PROGRAM FILES (X86)\MICROSOFT VISUAL STUDIO\2017\COMMUNITY\VC\TOOLS\MSVC\14.14.26428\INCLUDE\SMMINTRIN.H
C:\PROGRAM FILES (X86)\MICROSOFT VISUAL STUDIO\2017\COMMUNITY\VC\TOOLS\MSVC\14.14.26428\INCLUDE\TMMINTRIN.H
C:\PROGRAM FILES (X86)\MICROSOFT VISUAL STUDIO\2017\COMMUNITY\VC\TOOLS\MSVC\14.14.26428\INCLUDE\PMMINTRIN.H
C:\PROGRAM FILES (X86)\MICROSOFT VISUAL STUDIO\2017\COMMUNITY\VC\TOOLS\MSVC\14.14.26428\INCLUDE\ZMMINTRIN.H
C:\USERS\VICTO\DESKTOP\MYSPONZA\EXTERNAL\INCLUDE\GLM\DETAIL\FUNC_GEOMETRIC_SIMD.INL
C:\USERS\VICTO\DESKTOP\MYSPONZA\EXTERNAL\INCLUDE\GLM\SIMD\GEOMETRIC.H
C:\USERS\VICTO\DESKTOP\MYSPONZA\EXTERNAL\INCLUDE\GLM\DETAIL\FUNC_MATRIX_SIMD.INL
C:\USERS\VICTO\DESKTOP\MYSPONZA\EXTERNAL\INCLUDE\GLM\SIMD\MATRIX.H
C:\USERS\VICTO\DESKTOP\MYSPONZA\EXTERNAL\INCLUDE\GLM\TRIGONOMETRIC.HPP
C:\USERS\VICTO\DESKTOP\MYSPONZA\EXTERNAL\INCLUDE\GLM\DETAIL\FUNC_TRIGONOMETRIC.HPP
C:\USERS\VICTO\DESKTOP\MYSPONZA\EXTERNAL\INCLUDE\GLM\DETAIL\FUNC_TRIGONOMETRIC.INL
C:\USERS\VICTO\DESKTOP\MYSPONZA\EXTERNAL\INCLUDE\GLM\DETAIL\FUNC_TRIGONOMETRIC_SIMD.INL
C:\USERS\VICTO\DESKTOP\MYSPONZA\EXTERNAL\INCLUDE\GLM\EXPONENTIAL.HPP
C:\USERS\VICTO\DESKTOP\MYSPONZA\EXTERNAL\INCLUDE\GLM\COMMON.HPP
C:\USERS\VICTO\DESKTOP\MYSPONZA\EXTERNAL\INCLUDE\GLM\PACKING.HPP
C:\USERS\VICTO\DESKTOP\MYSPONZA\EXTERNAL\INCLUDE\GLM\DETAIL\FUNC_PACKING.HPP
C:\USERS\VICTO\DESKTOP\MYSPONZA\EXTERNAL\INCLUDE\GLM\DETAIL\FUNC_PACKING.INL
C:\USERS\VICTO\DESKTOP\MYSPONZA\EXTERNAL\INCLUDE\GLM\DETAIL\TYPE_HALF.HPP
C:\USERS\VICTO\DESKTOP\MYSPONZA\EXTERNAL\INCLUDE\GLM\DETAIL\TYPE_HALF.INL
C:\USERS\VICTO\DESKTOP\MYSPONZA\EXTERNAL\INCLUDE\GLM\DETAIL\FUNC_PACKING_SIMD.INL
C:\USERS\VICTO\DESKTOP\MYSPONZA\EXTERNAL\INCLUDE\GLM\MATRIX.HPP
C:\USERS\VICTO\DESKTOP\MYSPONZA\EXTERNAL\INCLUDE\GLM\VECTOR_RELATIONAL.HPP
C:\USERS\VICTO\DESKTOP\MYSPONZA\EXTERNAL\INCLUDE\GLM\INTEGER.HPP
C:\USERS\VICTO\DESKTOP\MYSPONZA\EXTERNAL\INCLUDE\GLM\DETAIL\FUNC_INTEGER.HPP
C:\USERS\VICTO\DESKTOP\MYSPONZA\EXTERNAL\INCLUDE\GLM\DETAIL\FUNC_INTEGER.INL
C:\PROGRAM FILES (X86)\MICROSOFT VISUAL STUDIO\2017\COMMUNITY\VC\TOOLS\MSVC\14.14.26428\INCLUDE\INTRIN.H
C:\PROGRAM FILES (X86)\MICROSOFT VISUAL STUDIO\2017\COMMUNITY\VC\TOOLS\MSVC\14.14.26428\INCLUDE\INTRIN0.H
C:\PROGRAM FILES (X86)\MICROSOFT VISUAL STUDIO\2017\COMMUNITY\VC\TOOLS\MSVC\14.14.26428\INCLUDE\SETJMP.H
C:\PROGRAM FILES (X86)\MICROSOFT VISUAL STUDIO\2017\COMMUNITY\VC\TOOLS\MSVC\14.14.26428\INCLUDE\AMMINTRIN.H
C:\USERS\VICTO\DESKTOP\MYSPONZA\EXTERNAL\INCLUDE\GLM\DETAIL\FUNC_INTEGER_SIMD.INL
C:\USERS\VICTO\DESKTOP\MYSPONZA\EXTERNAL\INCLUDE\GLM\SIMD\INTEGER.H
C:\USERS\VICTO\DESKTOP\MYSPONZA\DEFERMYSPONZA\SOURCE\MULTIPLECLASS.H
C:\PROGRAM FILES (X86)\MICROSOFT VISUAL STUDIO\2017\COMMUNITY\VC\TOOLS\MSVC\14.14.26428\INCLUDE\VECTOR
C:\PROGRAM FILES (X86)\MICROSOFT VISUAL STUDIO\2017\COMMUNITY\VC\TOOLS\MSVC\14.14.26428\INCLUDE\XMEMORY
C:\PROGRAM FILES (X86)\MICROSOFT VISUAL STUDIO\2017\COMMUNITY\VC\TOOLS\MSVC\14.14.26428\INCLUDE\XMEMORY0
C:\PROGRAM FILES (X86)\MICROSOFT VISUAL STUDIO\2017\COMMUNITY\VC\TOOLS\MSVC\14.14.26428\INCLUDE\NEW
C:\PROGRAM FILES (X86)\MICROSOFT VISUAL STUDIO\2017\COMMUNITY\VC\TOOLS\MSVC\14.14.26428\INCLUDE\EXCEPTION
C:\PROGRAM FILES (X86)\MICROSOFT VISUAL STUDIO\2017\COMMUNITY\VC\TOOLS\MSVC\14.14.26428\INCLUDE\VCRUNTIME_EXCEPTION.H
C:\PROGRAM FILES (X86)\MICROSOFT VISUAL STUDIO\2017\COMMUNITY\VC\TOOLS\MSVC\14.14.26428\INCLUDE\EH.H
C:\PROGRAM FILES (X86)\WINDOWS KITS\10\INCLUDE\10.0.10240.0\UCRT\CORECRT_TERMINATE.H
C:\PROGRAM FILES (X86)\MICROSOFT VISUAL STUDIO\2017\COMMUNITY\VC\TOOLS\MSVC\14.14.26428\INCLUDE\VCRUNTIME_NEW.H
C:\PROGRAM FILES (X86)\MICROSOFT VISUAL STUDIO\2017\COMMUNITY\VC\TOOLS\MSVC\14.14.26428\INCLUDE\XUTILITY
C:\PROGRAM FILES (X86)\MICROSOFT VISUAL STUDIO\2017\COMMUNITY\VC\TOOLS\MSVC\14.14.26428\INCLUDE\UTILITY
C:\PROGRAM FILES (X86)\MICROSOFT VISUAL STUDIO\2017\COMMUNITY\VC\TOOLS\MSVC\14.14.26428\INCLUDE\IOSFWD
C:\PROGRAM FILES (X86)\MICROSOFT VISUAL STUDIO\2017\COMMUNITY\VC\TOOLS\MSVC\14.14.26428\INCLUDE\CSTDIO
C:\PROGRAM FILES (X86)\WINDOWS KITS\10\INCLUDE\10.0.10240.0\UCRT\STDIO.H
C:\PROGRAM FILES (X86)\MICROSOFT VISUAL STUDIO\2017\COMMUNITY\VC\TOOLS\MSVC\14.14.26428\INCLUDE\CSTRING
C:\PROGRAM FILES (X86)\WINDOWS KITS\10\INCLUDE\10.0.10240.0\UCRT\STRING.H
C:\PROGRAM FILES (X86)\WINDOWS KITS\10\INCLUDE\10.0.10240.0\UCRT\CORECRT_MEMORY.H
C:\PROGRAM FILES (X86)\WINDOWS KITS\10\INCLUDE\10.0.10240.0\UCRT\CRTDBG.H
C:\PROGRAM FILES (X86)\MICROSOFT VISUAL STUDIO\2017\COMMUNITY\VC\TOOLS\MSVC\14.14.26428\INCLUDE\VCRUNTIME_NEW_DEBUG.H
C:\PROGRAM FILES (X86)\MICROSOFT VISUAL STUDIO\2017\COMMUNITY\VC\TOOLS\MSVC\14.14.26428\INCLUDE\XATOMIC0.H
C:\PROGRAM FILES (X86)\MICROSOFT VISUAL STUDIO\2017\COMMUNITY\VC\TOOLS\MSVC\14.14.26428\INCLUDE\STDEXCEPT
C:\PROGRAM FILES (X86)\MICROSOFT VISUAL STUDIO\2017\COMMUNITY\VC\TOOLS\MSVC\14.14.26428\INCLUDE\XSTRING
C:\USERS\VICTO\DESKTOP\MYSPONZA\EXTERNAL\INCLUDE\GLM\GTC\MATRIX_TRANSFORM.HPP
C:\USERS\VICTO\DESKTOP\MYSPONZA\EXTERNAL\INCLUDE\GLM\GTC\CONSTANTS.HPP
C:\USERS\VICTO\DESKTOP\MYSPONZA\EXTERNAL\INCLUDE\GLM\GTC\CONSTANTS.INL
C:\USERS\VICTO\DESKTOP\MYSPONZA\EXTERNAL\INCLUDE\GLM\GTC\MATRIX_TRANSFORM.INL
C:\PROGRAM FILES (X86)\MICROSOFT VISUAL STUDIO\2017\COMMUNITY\VC\TOOLS\MSVC\14.14.26428\INCLUDE\MEMORY
C:\PROGRAM FILES (X86)\MICROSOFT VISUAL STUDIO\2017\COMMUNITY\VC\TOOLS\MSVC\14.14.26428\INCLUDE\TYPEINFO
C:\PROGRAM FILES (X86)\MICROSOFT VISUAL STUDIO\2017\COMMUNITY\VC\TOOLS\MSVC\14.14.26428\INCLUDE\VCRUNTIME_TYPEINFO.H
C:\USERS\VICTO\DESKTOP\MYSPONZA\BUILD\INCLUDE\SPONZA\SPONZA.HPP
C:\USERS\VICTO\DESKTOP\MYSPONZA\BUILD\INCLUDE\SPONZA\CAMERA.HPP
C:\PROGRAM FILES (X86)\MICROSOFT VISUAL STUDIO\2017\COMMUNITY\VC\TOOLS\MSVC\14.14.26428\INCLUDE\STRING
C:\PROGRAM FILES (X86)\MICROSOFT VISUAL STUDIO\2017\COMMUNITY\VC\TOOLS\MSVC\14.14.26428\INCLUDE\ISTREAM
C:\PROGRAM FILES (X86)\MICROSOFT VISUAL STUDIO\2017\COMMUNITY\VC\TOOLS\MSVC\14.14.26428\INCLUDE\OSTREAM
C:\PROGRAM FILES (X86)\MICROSOFT VISUAL STUDIO\2017\COMMUNITY\VC\TOOLS\MSVC\14.14.26428\INCLUDE\IOS
C:\PROGRAM FILES (X86)\MICROSOFT VISUAL STUDIO\2017\COMMUNITY\VC\TOOLS\MSVC\14.14.26428\INCLUDE\XLOCNUM
C:\PROGRAM FILES (X86)\MICROSOFT VISUAL STUDIO\2017\COMMUNITY\VC\TOOLS\MSVC\14.14.26428\INCLUDE\STREAMBUF
C:\PROGRAM FILES (X86)\MICROSOFT VISUAL STUDIO\2017\COMMUNITY\VC\TOOLS\MSVC\14.14.26428\INCLUDE\XIOSBASE
C:\PROGRAM FILES (X86)\MICROSOFT VISUAL STUDIO\2017\COMMUNITY\VC\TOOLS\MSVC\14.14.26428\INCLUDE\XLOCALE
C:\PROGRAM FILES (X86)\MICROSOFT VISUAL STUDIO\2017\COMMUNITY\VC\TOOLS\MSVC\14.14.26428\INCLUDE\XLOCINFO
C:\PROGRAM FILES (X86)\MICROSOFT VISUAL STUDIO\2017\COMMUNITY\VC\TOOLS\MSVC\14.14.26428\INCLUDE\XLOCINFO.H
C:\PROGRAM FILES (X86)\WINDOWS KITS\10\INCLUDE\10.0.10240.0\UCRT\CTYPE.H
C:\PROGRAM FILES (X86)\WINDOWS KITS\10\INCLUDE\10.0.10240.0\UCRT\LOCALE.H
C:\PROGRAM FILES (X86)\MICROSOFT VISUAL STUDIO\2017\COMMUNITY\VC\TOOLS\MSVC\14.14.26428\INCLUDE\XFACET
C:\PROGRAM FILES (X86)\MICROSOFT VISUAL STUDIO\2017\COMMUNITY\VC\TOOLS\MSVC\14.14.26428\INCLUDE\SYSTEM_ERROR
C:\PROGRAM FILES (X86)\MICROSOFT VISUAL STUDIO\2017\COMMUNITY\VC\TOOLS\MSVC\14.14.26428\INCLUDE\CERRNO
C:\PROGRAM FILES (X86)\MICROSOFT VISUAL STUDIO\2017\COMMUNITY\VC\TOOLS\MSVC\14.14.26428\INCLUDE\XCALL_ONCE.H
C:\PROGRAM FILES (X86)\MICROSOFT VISUAL STUDIO\2017\COMMUNITY\VC\TOOLS\MSVC\14.14.26428\INCLUDE\XERRC.H
C:\PROGRAM FILES (X86)\WINDOWS KITS\10\INCLUDE\10.0.10240.0\UCRT\SHARE.H
C:\PROGRAM FILES (X86)\MICROSOFT VISUAL STUDIO\2017\COMMUNITY\VC\TOOLS\MSVC\14.14.26428\INCLUDE\XSTRING_INSERT.H
C:\PROGRAM FILES (X86)\MICROSOFT VISUAL STUDIO\2017\COMMUNITY\VC\TOOLS\MSVC\14.14.26428\INCLUDE\CHRONO
C:\PROGRAM FILES (X86)\MICROSOFT VISUAL STUDIO\2017\COMMUNITY\VC\TOOLS\MSVC\14.14.26428\INCLUDE\RATIO
C:\PROGRAM FILES (X86)\WINDOWS KITS\10\INCLUDE\10.0.10240.0\UCRT\TIME.H
C:\PROGRAM FILES (X86)\MICROSOFT VISUAL STUDIO\2017\COMMUNITY\VC\TOOLS\MSVC\14.14.26428\INCLUDE\THR\XTIMEC.H
C:\PROGRAM FILES (X86)\MICROSOFT VISUAL STUDIO\2017\COMMUNITY\VC\TOOLS\MSVC\14.14.26428\INCLUDE\THR\XTHRCOMMON.H
C:\USERS\VICTO\DESKTOP\MYSPONZA\BUILD\INCLUDE\SPONZA\CONTEXT.HPP
C:\USERS\VICTO\DESKTOP\MYSPONZA\BUILD\INCLUDE\SPONZA\GEOMETRYBUILDER.HPP
C:\USERS\VICTO\DESKTOP\MYSPONZA\BUILD\INCLUDE\SPONZA\INSTANCE.HPP
C:\USERS\VICTO\DESKTOP\MYSPONZA\BUILD\INCLUDE\SPONZA\DIRECTIONALLIGHT.HPP
C:\USERS\VICTO\DESKTOP\MYSPONZA\BUILD\INCLUDE\SPONZA\POINTLIGHT.HPP
C:\USERS\VICTO\DESKTOP\MYSPONZA\BUILD\INCLUDE\SPONZA\SPOTLIGHT.HPP
C:\USERS\VICTO\DESKTOP\MYSPONZA\BUILD\INCLUDE\SPONZA\MATERIAL.HPP
C:\USERS\VICTO\DESKTOP\MYSPONZA\BUILD\INCLUDE\SPONZA\MESH.HPP
C:\USERS\VICTO\DESKTOP\MYSPONZA\BUILD\INCLUDE\TYGRA\WINDOW.HPP
C:\PROGRAM FILES (X86)\MICROSOFT VISUAL STUDIO\2017\COMMUNITY\VC\TOOLS\MSVC\14.14.26428\INCLUDE\IOSTREAM
^C:\USERS\VICTO\DESKTOP\MYSPONZA\DEFERMYSPONZA\SOURCE\MYVIEW.CPP
C:\PROGRAM FILES (X86)\MICROSOFT VISUAL STUDIO\2017\COMMUNITY\VC\TOOLS\MSVC\14.14.26428\BIN\HOSTX86\X64\1033\CLUI.DLL
C:\WINDOWS\GLOBALIZATION\SORTING\SORTDEFAULT.NLS
C:\WINDOWS\SYSTEM32\TZRES.DLL
C:\USERS\VICTO\DESKTOP\MYSPONZA\DEFERMYSPONZA\SOURCE\MYVIEW.HPP
C:\USERS\VICTO\DESKTOP\MYSPONZA\BUILD\INCLUDE\SPONZA\SPONZA_FWD.HPP
C:\USERS\VICTO\DESKTOP\MYSPONZA\BUILD\INCLUDE\SPONZA\TYPES.HPP
C:\USERS\VICTO\DESKTOP\MYSPONZA\BUILD\INCLUDE\SPONZA\CONFIG.HPP
C:\USERS\VICTO\DESKTOP\MYSPONZA\BUILD\INCLUDE\TYGRA\WINDOWVIEWDELEGATE.HPP
C:\USERS\VICTO\DESKTOP\MYSPONZA\BUILD\INCLUDE\TGL\TGL.H
C:\USERS\VICTO\DESKTOP\MYSPONZA\BUILD\INCLUDE\GL\GLCOREARB.H
C:\PROGRAM FILES (X86)\WINDOWS KITS\10\INCLUDE\10.0.10240.0\UCRT\STDDEF.H
C:\PROGRAM FILES (X86)\WINDOWS KITS\10\INCLUDE\10.0.10240.0\UCRT\CORECRT.H
C:\PROGRAM FILES (X86)\MICROSOFT VISUAL STUDIO\2017\COMMUNITY\VC\TOOLS\MSVC\14.14.26428\INCLUDE\VCRUNTIME.H
C:\PROGRAM FILES (X86)\MICROSOFT VISUAL STUDIO\2017\COMMUNITY\VC\TOOLS\MSVC\14.14.26428\INCLUDE\SAL.H
C:\PROGRAM FILES (X86)\MICROSOFT VISUAL STUDIO\2017\COMMUNITY\VC\TOOLS\MSVC\14.14.26428\INCLUDE\CONCURRENCYSAL.H
C:\PROGRAM FILES (X86)\MICROSOFT VISUAL STUDIO\2017\COMMUNITY\VC\TOOLS\MSVC\14.14.26428\INCLUDE\VADEFS.H
C:\USERS\VICTO\DESKTOP\MYSPONZA\EXTERNAL\INCLUDE\GLM\GLM.HPP
C:\USERS\VICTO\DESKTOP\MYSPONZA\EXTERNAL\INCLUDE\GLM\DETAIL\_FIXES.HPP
C:\PROGRAM FILES (X86)\MICROSOFT VISUAL STUDIO\2017\COMMUNITY\VC\TOOLS\MSVC\14.14.26428\INCLUDE\CMATH
C:\PROGRAM FILES (X86)\MICROSOFT VISUAL STUDIO\2017\COMMUNITY\VC\TOOLS\MSVC\14.14.26428\INCLUDE\CSTDLIB
C:\PROGRAM FILES (X86)\MICROSOFT VISUAL STUDIO\2017\COMMUNITY\VC\TOOLS\MSVC\14.14.26428\INCLUDE\YVALS.H
C:\PROGRAM FILES (X86)\MICROSOFT VISUAL STUDIO\2017\COMMUNITY\VC\TOOLS\MSVC\14.14.26428\INCLUDE\XKEYCHECK.H
C:\PROGRAM FILES (X86)\MICROSOFT VISUAL STUDIO\2017\COMMUNITY\VC\TOOLS\MSVC\14.14.26428\INCLUDE\CRTDEFS.H
C:\PROGRAM FILES (X86)\MICROSOFT VISUAL STUDIO\2017\COMMUNITY\VC\TOOLS\MSVC\14.14.26428\INCLUDE\USE_ANSI.H
C:\PROGRAM FILES (X86)\WINDOWS KITS\10\INCLUDE\10.0.10240.0\UCRT\STDLIB.H
C:\PROGRAM FILES (X86)\WINDOWS KITS\10\INCLUDE\10.0.10240.0\UCRT\CORECRT_MALLOC.H
C:\PROGRAM FILES (X86)\WINDOWS KITS\10\INCLUDE\10.0.10240.0\UCRT\CORECRT_SEARCH.H
C:\PROGRAM FILES (X86)\WINDOWS KITS\10\INCLUDE\10.0.10240.0\UCRT\CORECRT_WSTDLIB.H
C:\PROGRAM FILES (X86)\MICROSOFT VISUAL STUDIO\2017\COMMUNITY\VC\TOOLS\MSVC\14.14.26428\INCLUDE\LIMITS.H
C:\PROGRAM FILES (X86)\WINDOWS KITS\10\INCLUDE\10.0.10240.0\UCRT\MATH.H
C:\PROGRAM FILES (X86)\MICROSOFT VISUAL STUDIO\2017\COMMUNITY\VC\TOOLS\MSVC\14.14.26428\INCLUDE\XTGMATH.H
C:\PROGRAM FILES (X86)\MICROSOFT VISUAL STUDIO\2017\COMMUNITY\VC\TOOLS\MSVC\14.14.26428\INCLUDE\XTR1COMMON
C:\PROGRAM FILES (X86)\MICROSOFT VISUAL STUDIO\2017\COMMUNITY\VC\TOOLS\MSVC\14.14.26428\INCLUDE\CLIMITS
C:\PROGRAM FILES (X86)\MICROSOFT VISUAL STUDIO\2017\COMMUNITY\VC\TOOLS\MSVC\14.14.26428\INCLUDE\CFLOAT
C:\PROGRAM FILES (X86)\WINDOWS KITS\10\INCLUDE\10.0.10240.0\UCRT\FLOAT.H
C:\PROGRAM FILES (X86)\MICROSOFT VISUAL STUDIO\2017\COMMUNITY\VC\TOOLS\MSVC\14.14.26428\INCLUDE\LIMITS
C:\PROGRAM FILES (X86)\MICROSOFT VISUAL STUDIO\2017\COMMUNITY\VC\TOOLS\MSVC\14.14.26428\INCLUDE\YMATH.H
C:\PROGRAM FILES (X86)\MICROSOFT VISUAL STUDIO\2017\COMMUNITY\VC\TOOLS\MSVC\14.14.26428\INCLUDE\CWCHAR
C:\PROGRAM FILES (X86)\WINDOWS KITS\10\INCLUDE\10.0.10240.0\UCRT\WCHAR.H
C:\PROGRAM FILES (X86)\WINDOWS KITS\10\INCLUDE\10.0.10240.0\UCRT\CORECRT_MEMCPY_S.H
C:\PROGRAM FILES (X86)\WINDOWS KITS\10\INCLUDE\10.0.10240.0\UCRT\ERRNO.H
C:\PROGRAM FILES (X86)\MICROSOFT VISUAL STUDIO\2017\COMMUNITY\VC\TOOLS\MSVC\14.14.26428\INCLUDE\VCRUNTIME_STRING.H
C:\PROGRAM FILES (X86)\WINDOWS KITS\10\INCLUDE\10.0.10240.0\UCRT\CORECRT_WCONIO.H
C:\PROGRAM FILES (X86)\WINDOWS KITS\10\INCLUDE\10.0.10240.0\UCRT\CORECRT_STDIO_CONFIG.H
C:\PROGRAM FILES (X86)\WINDOWS KITS\10\INCLUDE\10.0.10240.0\UCRT\CORECRT_WCTYPE.H
C:\PROGRAM FILES (X86)\WINDOWS KITS\10\INCLUDE\10.0.10240.0\UCRT\CORECRT_WDIRECT.H
C:\PROGRAM FILES (X86)\WINDOWS KITS\10\INCLUDE\10.0.10240.0\UCRT\CORECRT_WIO.H
C:\PROGRAM FILES (X86)\WINDOWS KITS\10\INCLUDE\10.0.10240.0\UCRT\CORECRT_SHARE.H
C:\PROGRAM FILES (X86)\WINDOWS KITS\10\INCLUDE\10.0.10240.0\UCRT\CORECRT_WPROCESS.H
C:\PROGRAM FILES (X86)\WINDOWS KITS\10\INCLUDE\10.0.10240.0\UCRT\CORECRT_WSTDIO.H
C:\PROGRAM FILES (X86)\WINDOWS KITS\10\INCLUDE\10.0.10240.0\UCRT\CORECRT_WSTRING.H
C:\PROGRAM FILES (X86)\WINDOWS KITS\10\INCLUDE\10.0.10240.0\UCRT\CORECRT_WTIME.H
C:\PROGRAM FILES (X86)\WINDOWS KITS\10\INCLUDE\10.0.10240.0\UCRT\SYS\STAT.H
C:\PROGRAM FILES (X86)\WINDOWS KITS\10\INCLUDE\10.0.10240.0\UCRT\SYS\TYPES.H
C:\PROGRAM FILES (X86)\MICROSOFT VISUAL STUDIO\2017\COMMUNITY\VC\TOOLS\MSVC\14.14.26428\INCLUDE\XSTDDEF
C:\PROGRAM FILES (X86)\MICROSOFT VISUAL STUDIO\2017\COMMUNITY\VC\TOOLS\MSVC\14.14.26428\INCLUDE\CSTDDEF
C:\PROGRAM FILES (X86)\MICROSOFT VISUAL STUDIO\2017\COMMUNITY\VC\TOOLS\MSVC\14.14.26428\INCLUDE\INITIALIZER_LIST
C:\PROGRAM FILES (X86)\MICROSOFT VISUAL STUDIO\2017\COMMUNITY\VC\TOOLS\MSVC\14.14.26428\INCLUDE\CASSERT
C:\PROGRAM FILES (X86)\WINDOWS KITS\10\INCLUDE\10.0.10240.0\UCRT\ASSERT.H
C:\USERS\VICTO\DESKTOP\MYSPONZA\EXTERNAL\INCLUDE\GLM\FWD.HPP
C:\USERS\VICTO\DESKTOP\MYSPONZA\EXTERNAL\INCLUDE\GLM\DETAIL\TYPE_INT.HPP
C:\USERS\VICTO\DESKTOP\MYSPONZA\EXTERNAL\INCLUDE\GLM\DETAIL\SETUP.HPP
C:\USERS\VICTO\DESKTOP\MYSPONZA\EXTERNAL\INCLUDE\GLM\SIMD\PLATFORM.H
C:\PROGRAM FILES (X86)\MICROSOFT VISUAL STUDIO\2017\COMMUNITY\VC\TOOLS\MSVC\14.14.26428\INCLUDE\EMMINTRIN.H
C:\PROGRAM FILES (X86)\MICROSOFT VISUAL STUDIO\2017\COMMUNITY\VC\TOOLS\MSVC\14.14.26428\INCLUDE\XMMINTRIN.H
C:\PROGRAM FILES (X86)\MICROSOFT VISUAL STUDIO\2017\COMMUNITY\VC\TOOLS\MSVC\14.14.26428\INCLUDE\MMINTRIN.H
C:\PROGRAM FILES (X86)\WINDOWS KITS\10\INCLUDE\10.0.10240.0\UCRT\MALLOC.H
C:\PROGRAM FILES (X86)\MICROSOFT VISUAL STUDIO\2017\COMMUNITY\VC\TOOLS\MSVC\14.14.26428\INCLUDE\TYPE_TRAITS
C:\PROGRAM FILES (X86)\MICROSOFT VISUAL STUDIO\2017\COMMUNITY\VC\TOOLS\MSVC\14.14.26428\INCLUDE\CSTDINT
C:\PROGRAM FILES (X86)\MICROSOFT VISUAL STUDIO\2017\COMMUNITY\VC\TOOLS\MSVC\14.14.26428\INCLUDE\STDINT.H
C:\USERS\VICTO\DESKTOP\MYSPONZA\EXTERNAL\INCLUDE\GLM\DETAIL\TYPE_FLOAT.HPP
C:\USERS\VICTO\DESKTOP\MYSPONZA\EXTERNAL\INCLUDE\GLM\DETAIL\TYPE_VEC.HPP
C:\USERS\VICTO\DESKTOP\MYSPONZA\EXTERNAL\INCLUDE\GLM\DETAIL\PRECISION.HPP
C:\USERS\VICTO\DESKTOP\MYSPONZA\EXTERNAL\INCLUDE\GLM\DETAIL\TYPE_MAT.HPP
C:\USERS\VICTO\DESKTOP\MYSPONZA\EXTERNAL\INCLUDE\GLM\VEC2.HPP
C:\USERS\VICTO\DESKTOP\MYSPONZA\EXTERNAL\INCLUDE\GLM\DETAIL\TYPE_VEC2.HPP
C:\USERS\VICTO\DESKTOP\MYSPONZA\EXTERNAL\INCLUDE\GLM\DETAIL\TYPE_VEC2.INL
C:\USERS\VICTO\DESKTOP\MYSPONZA\EXTERNAL\INCLUDE\GLM\VEC3.HPP
C:\USERS\VICTO\DESKTOP\MYSPONZA\EXTERNAL\INCLUDE\GLM\DETAIL\TYPE_VEC3.HPP
C:\USERS\VICTO\DESKTOP\MYSPONZA\EXTERNAL\INCLUDE\GLM\DETAIL\TYPE_VEC3.INL
C:\USERS\VICTO\DESKTOP\MYSPONZA\EXTERNAL\INCLUDE\GLM\VEC4.HPP
C:\USERS\VICTO\DESKTOP\MYSPONZA\EXTERNAL\INCLUDE\GLM\DETAIL\TYPE_VEC4.HPP
C:\USERS\VICTO\DESKTOP\MYSPONZA\EXTERNAL\INCLUDE\GLM\DETAIL\TYPE_VEC4.INL
C:\USERS\VICTO\DESKTOP\MYSPONZA\EXTERNAL\INCLUDE\GLM\DETAIL\TYPE_VEC4_SIMD.INL
C:\USERS\VICTO\DESKTOP\MYSPONZA\EXTERNAL\INCLUDE\GLM\MAT2X2.HPP
C:\USERS\VICTO\DESKTOP\MYSPONZA\EXTERNAL\INCLUDE\GLM\DETAIL\TYPE_MAT2X2.HPP
C:\USERS\VICTO\DESKTOP\MYSPONZA\EXTERNAL\INCLUDE\GLM\DETAIL\TYPE_MAT2X2.INL
C:\USERS\VICTO\DESKTOP\MYSPONZA\EXTERNAL\INCLUDE\GLM\DETAIL\FUNC_MATRIX.HPP
C:\USERS\VICTO\DESKTOP\MYSPONZA\EXTERNAL\INCLUDE\GLM\MAT2X3.HPP
C:\USERS\VICTO\DESKTOP\MYSPONZA\EXTERNAL\INCLUDE\GLM\DETAIL\TYPE_MAT2X3.HPP
C:\USERS\VICTO\DESKTOP\MYSPONZA\EXTERNAL\INCLUDE\GLM\DETAIL\TYPE_MAT2X3.INL
C:\USERS\VICTO\DESKTOP\MYSPONZA\EXTERNAL\INCLUDE\GLM\MAT2X4.HPP
C:\USERS\VICTO\DESKTOP\MYSPONZA\EXTERNAL\INCLUDE\GLM\DETAIL\TYPE_MAT2X4.HPP
C:\USERS\VICTO\DESKTOP\MYSPONZA\EXTERNAL\INCLUDE\GLM\DETAIL\TYPE_MAT2X4.INL
C:\USERS\VICTO\DESKTOP\MYSPONZA\EXTERNAL\INCLUDE\GLM\MAT3X2.HPP
C:\USERS\VICTO\DESKTOP\MYSPONZA\EXTERNAL\INCLUDE\GLM\DETAIL\TYPE_MAT3X2.HPP
C:\USERS\VICTO\DESKTOP\MYSPONZA\EXTERNAL\INCLUDE\GLM\DETAIL\TYPE_MAT3X2.INL
C:\USERS\VICTO\DESKTOP\MYSPONZA\EXTERNAL\INCLUDE\GLM\MAT3X3.HPP
C:\USERS\VICTO\DESKTOP\MYSPONZA\EXTERNAL\INCLUDE\GLM\DETAIL\TYPE_MAT3X3.HPP
C:\USERS\VICTO\DESKTOP\MYSPONZA\EXTERNAL\INCLUDE\GLM\DETAIL\TYPE_MAT3X3.INL
C:\USERS\VICTO\DESKTOP\MYSPONZA\EXTERNAL\INCLUDE\GLM\MAT3X4.HPP
C:\USERS\VICTO\DESKTOP\MYSPONZA\EXTERNAL\INCLUDE\GLM\DETAIL\TYPE_MAT3X4.HPP
C:\USERS\VICTO\DESKTOP\MYSPONZA\EXTERNAL\INCLUDE\GLM\DETAIL\TYPE_MAT3X4.INL
C:\USERS\VICTO\DESKTOP\MYSPONZA\EXTERNAL\INCLUDE\GLM\MAT4X2.HPP
C:\USERS\VICTO\DESKTOP\MYSPONZA\EXTERNAL\INCLUDE\GLM\DETAIL\TYPE_MAT4X2.HPP
C:\USERS\VICTO\DESKTOP\MYSPONZA\EXTERNAL\INCLUDE\GLM\DETAIL\TYPE_MAT4X2.INL
C:\USERS\VICTO\DESKTOP\MYSPONZA\EXTERNAL\INCLUDE\GLM\MAT4X3.HPP
C:\USERS\VICTO\DESKTOP\MYSPONZA\EXTERNAL\INCLUDE\GLM\DETAIL\TYPE_MAT4X3.HPP
C:\USERS\VICTO\DESKTOP\MYSPONZA\EXTERNAL\INCLUDE\GLM\DETAIL\TYPE_MAT4X3.INL
C:\USERS\VICTO\DESKTOP\MYSPONZA\EXTERNAL\INCLUDE\GLM\MAT4X4.HPP
C:\USERS\VICTO\DESKTOP\MYSPONZA\EXTERNAL\INCLUDE\GLM\DETAIL\TYPE_MAT4X4.HPP
C:\USERS\VICTO\DESKTOP\MYSPONZA\EXTERNAL\INCLUDE\GLM\DETAIL\TYPE_MAT4X4.INL
C:\USERS\VICTO\DESKTOP\MYSPONZA\EXTERNAL\INCLUDE\GLM\DETAIL\TYPE_MAT4X4_SIMD.INL
C:\USERS\VICTO\DESKTOP\MYSPONZA\EXTERNAL\INCLUDE\GLM\DETAIL\FUNC_MATRIX.INL
C:\USERS\VICTO\DESKTOP\MYSPONZA\EXTERNAL\INCLUDE\GLM\GEOMETRIC.HPP
C:\USERS\VICTO\DESKTOP\MYSPONZA\EXTERNAL\INCLUDE\GLM\DETAIL\FUNC_GEOMETRIC.HPP
C:\USERS\VICTO\DESKTOP\MYSPONZA\EXTERNAL\INCLUDE\GLM\DETAIL\FUNC_GEOMETRIC.INL
C:\USERS\VICTO\DESKTOP\MYSPONZA\EXTERNAL\INCLUDE\GLM\DETAIL\FUNC_EXPONENTIAL.HPP
C:\USERS\VICTO\DESKTOP\MYSPONZA\EXTERNAL\INCLUDE\GLM\DETAIL\TYPE_VEC1.HPP
C:\USERS\VICTO\DESKTOP\MYSPONZA\EXTERNAL\INCLUDE\GLM\DETAIL\TYPE_VEC1.INL
C:\USERS\VICTO\DESKTOP\MYSPONZA\EXTERNAL\INCLUDE\GLM\DETAIL\FUNC_EXPONENTIAL.INL
C:\USERS\VICTO\DESKTOP\MYSPONZA\EXTERNAL\INCLUDE\GLM\DETAIL\FUNC_VECTOR_RELATIONAL.HPP
C:\USERS\VICTO\DESKTOP\MYSPONZA\EXTERNAL\INCLUDE\GLM\DETAIL\FUNC_VECTOR_RELATIONAL.INL
C:\USERS\VICTO\DESKTOP\MYSPONZA\EXTERNAL\INCLUDE\GLM\DETAIL\FUNC_VECTOR_RELATIONAL_SIMD.INL
C:\USERS\VICTO\DESKTOP\MYSPONZA\EXTERNAL\INCLUDE\GLM\DETAIL\_VECTORIZE.HPP
C:\USERS\VICTO\DESKTOP\MYSPONZA\EXTERNAL\INCLUDE\GLM\DETAIL\FUNC_EXPONENTIAL_SIMD.INL
C:\USERS\VICTO\DESKTOP\MYSPONZA\EXTERNAL\INCLUDE\GLM\SIMD\EXPONENTIAL.H
C:\USERS\VICTO\DESKTOP\MYSPONZA\EXTERNAL\INCLUDE\GLM\DETAIL\FUNC_COMMON.HPP
C:\USERS\VICTO\DESKTOP\MYSPONZA\EXTERNAL\INCLUDE\GLM\DETAIL\FUNC_COMMON.INL
C:\USERS\VICTO\DESKTOP\MYSPONZA\EXTERNAL\INCLUDE\GLM\DETAIL\FUNC_COMMON_SIMD.INL
C:\USERS\VICTO\DESKTOP\MYSPONZA\EXTERNAL\INCLUDE\GLM\SIMD\COMMON.H
C:\PROGRAM FILES (X86)\MICROSOFT VISUAL STUDIO\2017\COMMUNITY\VC\TOOLS\MSVC\14.14.26428\INCLUDE\IMMINTRIN.H
C:\PROGRAM FILES (X86)\MICROSOFT VISUAL STUDIO\2017\COMMUNITY\VC\TOOLS\MSVC\14.14.26428\INCLUDE\WMMINTRIN.H
C:\PROGRAM FILES (X86)\MICROSOFT VISUAL STUDIO\2017\COMMUNITY\VC\TOOLS\MSVC\14.14.26428\INCLUDE\NMMINTRIN.H
C:\PROGRAM FILES (X86)\MICROSOFT VISUAL STUDIO\2017\COMMUNITY\VC\TOOLS\MSVC\14.14.26428\INCLUDE\SMMINTRIN.H
C:\PROGRAM FILES (X86)\MICROSOFT VISUAL STUDIO\2017\COMMUNITY\VC\TOOLS\MSVC\14.14.26428\INCLUDE\TMMINTRIN.H
C:\PROGRAM FILES (X86)\MICROSOFT VISUAL STUDIO\2017\COMMUNITY\VC\TOOLS\MSVC\14.14.26428\INCLUDE\PMMINTRIN.H
C:\PROGRAM FILES (X86)\MICROSOFT VISUAL STUDIO\2017\COMMUNITY\VC\TOOLS\MSVC\14.14.26428\INCLUDE\ZMMINTRIN.H
C:\USERS\VICTO\DESKTOP\MYSPONZA\EXTERNAL\INCLUDE\GLM\DETAIL\FUNC_GEOMETRIC_SIMD.INL
C:\USERS\VICTO\DESKTOP\MYSPONZA\EXTERNAL\INCLUDE\GLM\SIMD\GEOMETRIC.H
C:\USERS\VICTO\DESKTOP\MYSPONZA\EXTERNAL\INCLUDE\GLM\DETAIL\FUNC_MATRIX_SIMD.INL
C:\USERS\VICTO\DESKTOP\MYSPONZA\EXTERNAL\INCLUDE\GLM\SIMD\MATRIX.H
C:\USERS\VICTO\DESKTOP\MYSPONZA\EXTERNAL\INCLUDE\GLM\TRIGONOMETRIC.HPP
C:\USERS\VICTO\DESKTOP\MYSPONZA\EXTERNAL\INCLUDE\GLM\DETAIL\FUNC_TRIGONOMETRIC.HPP
C:\USERS\VICTO\DESKTOP\MYSPONZA\EXTERNAL\INCLUDE\GLM\DETAIL\FUNC_TRIGONOMETRIC.INL
C:\USERS\VICTO\DESKTOP\MYSPONZA\EXTERNAL\INCLUDE\GLM\DETAIL\FUNC_TRIGONOMETRIC_SIMD.INL
C:\USERS\VICTO\DESKTOP\MYSPONZA\EXTERNAL\INCLUDE\GLM\EXPONENTIAL.HPP
C:\USERS\VICTO\DESKTOP\MYSPONZA\EXTERNAL\INCLUDE\GLM\COMMON.HPP
C:\USERS\VICTO\DESKTOP\MYSPONZA\EXTERNAL\INCLUDE\GLM\PACKING.HPP
C:\USERS\VICTO\DESKTOP\MYSPONZA\EXTERNAL\INCLUDE\GLM\DETAIL\FUNC_PACKING.HPP
C:\USERS\VICTO\DESKTOP\MYSPONZA\EXTERNAL\INCLUDE\GLM\DETAIL\FUNC_PACKING.INL
C:\USERS\VICTO\DESKTOP\MYSPONZA\EXTERNAL\INCLUDE\GLM\DETAIL\TYPE_HALF.HPP
C:\USERS\VICTO\DESKTOP\MYSPONZA\EXTERNAL\INCLUDE\GLM\DETAIL\TYPE_HALF.INL
C:\USERS\VICTO\DESKTOP\MYSPONZA\EXTERNAL\INCLUDE\GLM\DETAIL\FUNC_PACKING_SIMD.INL
C:\USERS\VICTO\DESKTOP\MYSPONZA\EXTERNAL\INCLUDE\GLM\MATRIX.HPP
C:\USERS\VICTO\DESKTOP\MYSPONZA\EXTERNAL\INCLUDE\GLM\VECTOR_RELATIONAL.HPP
C:\USERS\VICTO\DESKTOP\MYSPONZA\EXTERNAL\INCLUDE\GLM\INTEGER.HPP
C:\USERS\VICTO\DESKTOP\MYSPONZA\EXTERNAL\INCLUDE\GLM\DETAIL\FUNC_INTEGER.HPP
C:\USERS\VICTO\DESKTOP\MYSPONZA\EXTERNAL\INCLUDE\GLM\DETAIL\FUNC_INTEGER.INL
C:\PROGRAM FILES (X86)\MICROSOFT VISUAL STUDIO\2017\COMMUNITY\VC\TOOLS\MSVC\14.14.26428\INCLUDE\INTRIN.H
C:\PROGRAM FILES (X86)\MICROSOFT VISUAL STUDIO\2017\COMMUNITY\VC\TOOLS\MSVC\14.14.26428\INCLUDE\INTRIN0.H
C:\PROGRAM FILES (X86)\MICROSOFT VISUAL STUDIO\2017\COMMUNITY\VC\TOOLS\MSVC\14.14.26428\INCLUDE\SETJMP.H
C:\PROGRAM FILES (X86)\MICROSOFT VISUAL STUDIO\2017\COMMUNITY\VC\TOOLS\MSVC\14.14.26428\INCLUDE\AMMINTRIN.H
C:\USERS\VICTO\DESKTOP\MYSPONZA\EXTERNAL\INCLUDE\GLM\DETAIL\FUNC_INTEGER_SIMD.INL
C:\USERS\VICTO\DESKTOP\MYSPONZA\EXTERNAL\INCLUDE\GLM\SIMD\INTEGER.H
C:\USERS\VICTO\DESKTOP\MYSPONZA\DEFERMYSPONZA\SOURCE\MULTIPLECLASS.H
C:\PROGRAM FILES (X86)\MICROSOFT VISUAL STUDIO\2017\COMMUNITY\VC\TOOLS\MSVC\14.14.26428\INCLUDE\VECTOR
C:\PROGRAM FILES (X86)\MICROSOFT VISUAL STUDIO\2017\COMMUNITY\VC\TOOLS\MSVC\14.14.26428\INCLUDE\XMEMORY
C:\PROGRAM FILES (X86)\MICROSOFT VISUAL STUDIO\2017\COMMUNITY\VC\TOOLS\MSVC\14.14.26428\INCLUDE\XMEMORY0
C:\PROGRAM FILES (X86)\MICROSOFT VISUAL STUDIO\2017\COMMUNITY\VC\TOOLS\MSVC\14.14.26428\INCLUDE\NEW
C:\PROGRAM FILES (X86)\MICROSOFT VISUAL STUDIO\2017\COMMUNITY\VC\TOOLS\MSVC\14.14.26428\INCLUDE\EXCEPTION
C:\PROGRAM FILES (X86)\MICROSOFT VISUAL STUDIO\2017\COMMUNITY\VC\TOOLS\MSVC\14.14.26428\INCLUDE\VCRUNTIME_EXCEPTION.H
C:\PROGRAM FILES (X86)\MICROSOFT VISUAL STUDIO\2017\COMMUNITY\VC\TOOLS\MSVC\14.14.26428\INCLUDE\EH.H
C:\PROGRAM FILES (X86)\WINDOWS KITS\10\INCLUDE\10.0.10240.0\UCRT\CORECRT_TERMINATE.H
C:\PROGRAM FILES (X86)\MICROSOFT VISUAL STUDIO\2017\COMMUNITY\VC\TOOLS\MSVC\14.14.26428\INCLUDE\VCRUNTIME_NEW.H
C:\PROGRAM FILES (X86)\MICROSOFT VISUAL STUDIO\2017\COMMUNITY\VC\TOOLS\MSVC\14.14.26428\INCLUDE\XUTILITY
C:\PROGRAM FILES (X86)\MICROSOFT VISUAL STUDIO\2017\COMMUNITY\VC\TOOLS\MSVC\14.14.26428\INCLUDE\UTILITY
C:\PROGRAM FILES (X86)\MICROSOFT VISUAL STUDIO\2017\COMMUNITY\VC\TOOLS\MSVC\14.14.26428\INCLUDE\IOSFWD
C:\PROGRAM FILES (X86)\MICROSOFT VISUAL STUDIO\2017\COMMUNITY\VC\TOOLS\MSVC\14.14.26428\INCLUDE\CSTDIO
C:\PROGRAM FILES (X86)\WINDOWS KITS\10\INCLUDE\10.0.10240.0\UCRT\STDIO.H
C:\PROGRAM FILES (X86)\MICROSOFT VISUAL STUDIO\2017\COMMUNITY\VC\TOOLS\MSVC\14.14.26428\INCLUDE\CSTRING
C:\PROGRAM FILES (X86)\WINDOWS KITS\10\INCLUDE\10.0.10240.0\UCRT\STRING.H
C:\PROGRAM FILES (X86)\WINDOWS KITS\10\INCLUDE\10.0.10240.0\UCRT\CORECRT_MEMORY.H
C:\PROGRAM FILES (X86)\WINDOWS KITS\10\INCLUDE\10.0.10240.0\UCRT\CRTDBG.H
C:\PROGRAM FILES (X86)\MICROSOFT VISUAL STUDIO\2017\COMMUNITY\VC\TOOLS\MSVC\14.14.26428\INCLUDE\VCRUNTIME_NEW_DEBUG.H
C:\PROGRAM FILES (X86)\MICROSOFT VISUAL STUDIO\2017\COMMUNITY\VC\TOOLS\MSVC\14.14.26428\INCLUDE\XATOMIC0.H
C:\PROGRAM FILES (X86)\MICROSOFT VISUAL STUDIO\2017\COMMUNITY\VC\TOOLS\MSVC\14.14.26428\INCLUDE\STDEXCEPT
C:\PROGRAM FILES (X86)\MICROSOFT VISUAL STUDIO\2017\COMMUNITY\VC\TOOLS\MSVC\14.14.26428\INCLUDE\XSTRING
C:\USERS\VICTO\DESKTOP\MYSPONZA\EXTERNAL\INCLUDE\GLM\GTC\MATRIX_TRANSFORM.HPP
C:\USERS\VICTO\DESKTOP\MYSPONZA\EXTERNAL\INCLUDE\GLM\GTC\CONSTANTS.HPP
C:\USERS\VICTO\DESKTOP\MYSPONZA\EXTERNAL\INCLUDE\GLM\GTC\CONSTANTS.INL
C:\USERS\VICTO\DESKTOP\MYSPONZA\EXTERNAL\INCLUDE\GLM\GTC\MATRIX_TRANSFORM.INL
C:\PROGRAM FILES (X86)\MICROSOFT VISUAL STUDIO\2017\COMMUNITY\VC\TOOLS\MSVC\14.14.26428\INCLUDE\MEMORY
C:\PROGRAM FILES (X86)\MICROSOFT VISUAL STUDIO\2017\COMMUNITY\VC\TOOLS\MSVC\14.14.26428\INCLUDE\TYPEINFO
C:\PROGRAM FILES (X86)\MICROSOFT VISUAL STUDIO\2017\COMMUNITY\VC\TOOLS\MSVC\14.14.26428\INCLUDE\VCRUNTIME_TYPEINFO.H
C:\USERS\VICTO\DESKTOP\MYSPONZA\BUILD\INCLUDE\SPONZA\SPONZA.HPP
C:\USERS\VICTO\DESKTOP\MYSPONZA\BUILD\INCLUDE\SPONZA\CAMERA.HPP
C:\PROGRAM FILES (X86)\MICROSOFT VISUAL STUDIO\2017\COMMUNITY\VC\TOOLS\MSVC\14.14.26428\INCLUDE\STRING
C:\PROGRAM FILES (X86)\MICROSOFT VISUAL STUDIO\2017\COMMUNITY\VC\TOOLS\MSVC\14.14.26428\INCLUDE\ISTREAM
C:\PROGRAM FILES (X86)\MICROSOFT VISUAL STUDIO\2017\COMMUNITY\VC\TOOLS\MSVC\14.14.26428\INCLUDE\OSTREAM
C:\PROGRAM FILES (X86)\MICROSOFT VISUAL STUDIO\2017\COMMUNITY\VC\TOOLS\MSVC\14.14.26428\INCLUDE\IOS
C:\PROGRAM FILES (X86)\MICROSOFT VISUAL STUDIO\2017\COMMUNITY\VC\TOOLS\MSVC\14.14.26428\INCLUDE\XLOCNUM
C:\PROGRAM FILES (X86)\MICROSOFT VISUAL STUDIO\2017\COMMUNITY\VC\TOOLS\MSVC\14.14.26428\INCLUDE\STREAMBUF
C:\PROGRAM FILES (X86)\MICROSOFT VISUAL STUDIO\2017\COMMUNITY\VC\TOOLS\MSVC\14.14.26428\INCLUDE\XIOSBASE
C:\PROGRAM FILES (X86)\MICROSOFT VISUAL STUDIO\2017\COMMUNITY\VC\TOOLS\MSVC\14.14.26428\INCLUDE\XLOCALE
C:\PROGRAM FILES (X86)\MICROSOFT VISUAL STUDIO\2017\COMMUNITY\VC\TOOLS\MSVC\14.14.26428\INCLUDE\XLOCINFO
C:\PROGRAM FILES (X86)\MICROSOFT VISUAL STUDIO\2017\COMMUNITY\VC\TOOLS\MSVC\14.14.26428\INCLUDE\XLOCINFO.H
C:\PROGRAM FILES (X86)\WINDOWS KITS\10\INCLUDE\10.0.10240.0\UCRT\CTYPE.H
C:\PROGRAM FILES (X86)\WINDOWS KITS\10\INCLUDE\10.0.10240.0\UCRT\LOCALE.H
C:\PROGRAM FILES (X86)\MICROSOFT VISUAL STUDIO\2017\COMMUNITY\VC\TOOLS\MSVC\14.14.26428\INCLUDE\XFACET
C:\PROGRAM FILES (X86)\MICROSOFT VISUAL STUDIO\2017\COMMUNITY\VC\TOOLS\MSVC\14.14.26428\INCLUDE\SYSTEM_ERROR
C:\PROGRAM FILES (X86)\MICROSOFT VISUAL STUDIO\2017\COMMUNITY\VC\TOOLS\MSVC\14.14.26428\INCLUDE\CERRNO
C:\PROGRAM FILES (X86)\MICROSOFT VISUAL STUDIO\2017\COMMUNITY\VC\TOOLS\MSVC\14.14.26428\INCLUDE\XCALL_ONCE.H
C:\PROGRAM FILES (X86)\MICROSOFT VISUAL STUDIO\2017\COMMUNITY\VC\TOOLS\MSVC\14.14.26428\INCLUDE\XERRC.H
C:\PROGRAM FILES (X86)\WINDOWS KITS\10\INCLUDE\10.0.10240.0\UCRT\SHARE.H
C:\PROGRAM FILES (X86)\MICROSOFT VISUAL STUDIO\2017\COMMUNITY\VC\TOOLS\MSVC\14.14.26428\INCLUDE\XSTRING_INSERT.H
C:\PROGRAM FILES (X86)\MICROSOFT VISUAL STUDIO\2017\COMMUNITY\VC\TOOLS\MSVC\14.14.26428\INCLUDE\CHRONO
C:\PROGRAM FILES (X86)\MICROSOFT VISUAL STUDIO\2017\COMMUNITY\VC\TOOLS\MSVC\14.14.26428\INCLUDE\RATIO
C:\PROGRAM FILES (X86)\WINDOWS KITS\10\INCLUDE\10.0.10240.0\UCRT\TIME.H
C:\PROGRAM FILES (X86)\MICROSOFT VISUAL STUDIO\2017\COMMUNITY\VC\TOOLS\MSVC\14.14.26428\INCLUDE\THR\XTIMEC.H
C:\PROGRAM FILES (X86)\MICROSOFT VISUAL STUDIO\2017\COMMUNITY\VC\TOOLS\MSVC\14.14.26428\INCLUDE\THR\XTHRCOMMON.H
C:\USERS\VICTO\DESKTOP\MYSPONZA\BUILD\INCLUDE\SPONZA\CONTEXT.HPP
C:\USERS\VICTO\DESKTOP\MYSPONZA\BUILD\INCLUDE\SPONZA\GEOMETRYBUILDER.HPP
C:\USERS\VICTO\DESKTOP\MYSPONZA\BUILD\INCLUDE\SPONZA\INSTANCE.HPP
C:\USERS\VICTO\DESKTOP\MYSPONZA\BUILD\INCLUDE\SPONZA\DIRECTIONALLIGHT.HPP
C:\USERS\VICTO\DESKTOP\MYSPONZA\BUILD\INCLUDE\SPONZA\POINTLIGHT.HPP
C:\USERS\VICTO\DESKTOP\MYSPONZA\BUILD\INCLUDE\SPONZA\SPOTLIGHT.HPP
C:\USERS\VICTO\DESKTOP\MYSPONZA\BUILD\INCLUDE\SPONZA\MATERIAL.HPP
C:\USERS\VICTO\DESKTOP\MYSPONZA\BUILD\INCLUDE\SPONZA\MESH.HPP
C:\USERS\VICTO\DESKTOP\MYSPONZA\BUILD\INCLUDE\TYGRA\FILEHELPER.HPP
C:\USERS\VICTO\DESKTOP\MYSPONZA\BUILD\INCLUDE\TYGRA\IMAGE.HPP
C:\USERS\VICTO\DESKTOP\MYSPONZA\EXTERNAL\INCLUDE\TDL\TDL.H
C:\USERS\VICTO\DESKTOP\MYSPONZA\EXTERNAL\INCLUDE\TSL\SHAPES.HPP
C:\USERS\VICTO\DESKTOP\MYSPONZA\EXTERNAL\INCLUDE\TSL\GEOMETRY.HPP
C:\USERS\VICTO\DESKTOP\MYSPONZA\EXTERNAL\INCLUDE\TSL\TYPES.HPP
C:\USERS\VICTO\DESKTOP\MYSPONZA\EXTERNAL\INCLUDE\TSL\CONFIG.HPP
C:\USERS\VICTO\DESKTOP\MYSPONZA\EXTERNAL\INCLUDE\GLM\GTC\TYPE_PTR.HPP
C:\USERS\VICTO\DESKTOP\MYSPONZA\EXTERNAL\INCLUDE\GLM\GTC\QUATERNION.HPP
C:\USERS\VICTO\DESKTOP\MYSPONZA\EXTERNAL\INCLUDE\GLM\GTC\QUATERNION.INL
C:\USERS\VICTO\DESKTOP\MYSPONZA\EXTERNAL\INCLUDE\GLM\GTC\QUATERNION_SIMD.INL
C:\USERS\VICTO\DESKTOP\MYSPONZA\EXTERNAL\INCLUDE\GLM\GTC\TYPE_PTR.INL
C:\USERS\VICTO\DESKTOP\MYSPONZA\EXTERNAL\INCLUDE\GLM\GTC\RANDOM.HPP
C:\USERS\VICTO\DESKTOP\MYSPONZA\EXTERNAL\INCLUDE\GLM\GTC\RANDOM.INL
C:\PROGRAM FILES (X86)\MICROSOFT VISUAL STUDIO\2017\COMMUNITY\VC\TOOLS\MSVC\14.14.26428\INCLUDE\CTIME
C:\PROGRAM FILES (X86)\MICROSOFT VISUAL STUDIO\2017\COMMUNITY\VC\TOOLS\MSVC\14.14.26428\INCLUDE\IOSTREAM
C:\USERS\VICTO\DESKTOP\MYSPONZA\DEFERMYSPONZA\SOURCE\OPENGL.HPP
